>>>>> data  {
  progress: 'buying',
  progress_cmt: 'buying/selling',
  currentPrice: 0.5879,
  currentChart: 'normal',
  currentChart_cmt: 'normal/up/down',
  highPrice: 0,
  lowPrice: 0,
  priceSL: 0,
  buyType: 'du_dinh',
  buyType_cmt: 'du_dinh',
  balance: { USDT: 10000, ONG: 0 },
  buyAmount: 0,
  buyPrice: 0,
  totalUSDT: 10000
}
>>>>> order {
  timestamp: '2022-01-22T07:00:00+07:00',
  datetime: 1642809600000,
  symbol: 'ONG/USDT',
  type: 'market',
  timeInForce: 'GTC',
  side: 'buy',
  price: 0.5879,
  amount: 5102.908657935023,
  cost: 3000,
  average: 43394.61,
  filled: 0.002309,
  remaining: 0,
  status: 'closed'
}
>>>>> item1st {
  time: 1642809600000,
  timestamp: '2022-01-22T07:00:00+07:00',
  open: 0.581,
  high: 0.6258,
  low: 0.5802,
  close: 0.5879,
  volume: 149284,
  status: 'up',
  change: 1.1876075731497449,
  applitude: 7.8593588417786915,
  lockItem: 0
}
Balance: ONG 5102.908657935023, USDT: 7000
Total USDT: 10000. 

-----------
>>>>> data  {
  progress: 'selling',
  progress_cmt: 'buying/selling',
  currentPrice: 0.6027,
  currentChart: 'up',
  currentChart_cmt: 'normal/up/down',
  highPrice: 0.6027,
  lowPrice: 0,
  priceSL: 0,
  buyType: 'du_dinh',
  buyType_cmt: 'du_dinh',
  balance: { USDT: 7000, ONG: 5102.908657935023 },
  buyAmount: 5102.908657935023,
  buyPrice: 0.5879,
  totalUSDT: 10000
}
>>>>> order {
  timestamp: '2022-01-22T07:04:00+07:00',
  datetime: 1642809840000,
  symbol: 'ONG/USDT',
  type: 'market',
  timeInForce: 'GTC',
  side: 'sell',
  price: 0.6027,
  amount: 5102.908657935023,
  cost: 3075.5230481374388,
  average: 43394.61,
  filled: 0.002309,
  remaining: 0,
  status: 'closed'
}
>>>>> item1st {
  time: 1642809840000,
  timestamp: '2022-01-22T07:04:00+07:00',
  open: 0.5873,
  high: 0.6027,
  low: 0.5873,
  close: 0.6027,
  volume: 15608,
  status: 'up',
  change: 2.622169249106073,
  applitude: 2.622169249106073,
  lockItem: 0
}
TP difPc:  2.5174349379146173
Balance: ONG 0, USDT: 10075.523048137438
Total USDT: 10075.523048137438. 

-----------
>>>>> data  {
  progress: 'buying',
  progress_cmt: 'buying/selling',
  currentPrice: 0.5849,
  currentChart: 'normal',
  currentChart_cmt: 'normal/up/down',
  highPrice: 0,
  lowPrice: 0,
  priceSL: 0,
  buyType: '',
  buyType_cmt: 'du_dinh',
  balance: { USDT: 10075.523048137438, ONG: 0 },
  buyAmount: 0,
  buyPrice: 0,
  totalUSDT: 10075.523048137438
}
>>>>> order {
  timestamp: '2022-01-22T07:07:00+07:00',
  datetime: 1642810020000,
  symbol: 'ONG/USDT',
  type: 'market',
  timeInForce: 'GTC',
  side: 'buy',
  price: 0.5849,
  amount: 5129.081894340913,
  cost: 3000,
  average: 43394.61,
  filled: 0.002309,
  remaining: 0,
  status: 'closed'
}
>>>>> item1st {
  time: 1642810020000,
  timestamp: '2022-01-22T07:07:00+07:00',
  open: 0.5912,
  high: 0.5912,
  low: 0.5849,
  close: 0.5849,
  volume: 2916,
  status: 'down',
  change: -1.0656292286874107,
  applitude: 1.077107197811587,
  lockItem: 0
}
Balance: ONG 5129.081894340913, USDT: 7075.523048137438
Total USDT: 10075.523048137438. 

-----------
>>>>> data  {
  progress: 'selling',
  progress_cmt: 'buying/selling',
  currentPrice: 0.6173,
  currentChart: 'up',
  currentChart_cmt: 'normal/up/down',
  highPrice: 0.6173,
  lowPrice: 0,
  priceSL: 0,
  buyType: 'ko_do_day',
  buyType_cmt: 'du_dinh',
  balance: { USDT: 7075.523048137438, ONG: 5129.081894340913 },
  buyAmount: 5129.081894340913,
  buyPrice: 0.5849,
  totalUSDT: 10075.523048137438
}
>>>>> order {
  timestamp: '2022-01-22T07:11:00+07:00',
  datetime: 1642810260000,
  symbol: 'ONG/USDT',
  type: 'market',
  timeInForce: 'GTC',
  side: 'sell',
  price: 0.6173,
  amount: 5129.081894340913,
  cost: 3166.1822533766453,
  average: 43394.61,
  filled: 0.002309,
  remaining: 0,
  status: 'closed'
}
>>>>> item1st {
  time: 1642810260000,
  timestamp: '2022-01-22T07:11:00+07:00',
  open: 0.5944,
  high: 0.6239,
  low: 0.5944,
  close: 0.6173,
  volume: 47014,
  status: 'up',
  change: 3.8526244952893536,
  applitude: 4.962987886944813,
  lockItem: 0
}
TP difPc:  5.539408445888183
Balance: ONG 0, USDT: 10241.705301514085
Total USDT: 10241.705301514085. 

-----------
>>>>> data  {
  progress: 'buying',
  progress_cmt: 'buying/selling',
  currentPrice: 0.6359,
  currentChart: 'normal',
  currentChart_cmt: 'normal/up/down',
  highPrice: 0,
  lowPrice: 0,
  priceSL: 0,
  buyType: '',
  buyType_cmt: 'du_dinh',
  balance: { USDT: 10241.705301514085, ONG: 0 },
  buyAmount: 0,
  buyPrice: 0,
  totalUSDT: 10241.705301514085
}
>>>>> order {
  timestamp: '2022-01-22T07:17:00+07:00',
  datetime: 1642810620000,
  symbol: 'ONG/USDT',
  type: 'market',
  timeInForce: 'GTC',
  side: 'buy',
  price: 0.6359,
  amount: 4717.722912407611,
  cost: 3000,
  average: 43394.61,
  filled: 0.002309,
  remaining: 0,
  status: 'closed'
}
>>>>> item1st {
  time: 1642810620000,
  timestamp: '2022-01-22T07:17:00+07:00',
  open: 0.6284,
  high: 0.6359,
  low: 0.6229,
  close: 0.6359,
  volume: 29046,
  status: 'up',
  change: 1.1935073201782405,
  applitude: 2.0870123615347587,
  lockItem: 0
}
Balance: ONG 4717.722912407611, USDT: 7241.705301514085
Total USDT: 10241.705301514085. 

-----------
>>>>> data  {
  progress: 'selling',
  progress_cmt: 'buying/selling',
  currentPrice: 0.6529,
  currentChart: 'up',
  currentChart_cmt: 'normal/up/down',
  highPrice: 0.6529,
  lowPrice: 0,
  priceSL: 0,
  buyType: 'du_dinh',
  buyType_cmt: 'du_dinh',
  balance: { USDT: 7241.705301514085, ONG: 4717.722912407611 },
  buyAmount: 4717.722912407611,
  buyPrice: 0.6359,
  totalUSDT: 10241.705301514085
}
>>>>> order {
  timestamp: '2022-01-22T07:18:00+07:00',
  datetime: 1642810680000,
  symbol: 'ONG/USDT',
  type: 'market',
  timeInForce: 'GTC',
  side: 'sell',
  price: 0.6529,
  amount: 4717.722912407611,
  cost: 3080.2012895109297,
  average: 43394.61,
  filled: 0.002309,
  remaining: 0,
  status: 'closed'
}
>>>>> item1st {
  time: 1642810680000,
  timestamp: '2022-01-22T07:18:00+07:00',
  open: 0.6359,
  high: 0.6597,
  low: 0.6345,
  close: 0.6529,
  volume: 24498,
  status: 'up',
  change: 2.673376317030982,
  applitude: 3.9716312056737593,
  lockItem: 0
}
TP difPc:  2.673376317030982
Balance: ONG 0, USDT: 10321.906591025014
Total USDT: 10321.906591025014. 

-----------
>>>>> data  {
  progress: 'buying',
  progress_cmt: 'buying/selling',
  currentPrice: 0.6786,
  currentChart: 'normal',
  currentChart_cmt: 'normal/up/down',
  highPrice: 0,
  lowPrice: 0,
  priceSL: 0,
  buyType: '',
  buyType_cmt: 'du_dinh',
  balance: { USDT: 10321.906591025014, ONG: 0 },
  buyAmount: 0,
  buyPrice: 0,
  totalUSDT: 10321.906591025014
}
>>>>> order {
  timestamp: '2022-01-22T07:25:00+07:00',
  datetime: 1642811100000,
  symbol: 'ONG/USDT',
  type: 'market',
  timeInForce: 'GTC',
  side: 'buy',
  price: 0.6786,
  amount: 4420.866489832008,
  cost: 3000.0000000000005,
  average: 43394.61,
  filled: 0.002309,
  remaining: 0,
  status: 'closed'
}
>>>>> item1st {
  time: 1642811100000,
  timestamp: '2022-01-22T07:25:00+07:00',
  open: 0.6661,
  high: 0.6853,
  low: 0.6661,
  close: 0.6786,
  volume: 23772,
  status: 'up',
  change: 1.8765951058399573,
  applitude: 2.882450082570184,
  lockItem: 0
}
Balance: ONG 4420.866489832008, USDT: 7321.906591025014
Total USDT: 10321.906591025014. 

-----------
>>>>> data  {
  progress: 'selling',
  progress_cmt: 'buying/selling',
  currentPrice: 0.661,
  currentChart: 'down',
  currentChart_cmt: 'normal/up/down',
  highPrice: 0.6828,
  lowPrice: 0,
  priceSL: 0,
  buyType: 'du_dinh',
  buyType_cmt: 'du_dinh',
  balance: { USDT: 7321.906591025014, ONG: 4420.866489832008 },
  buyAmount: 4420.866489832008,
  buyPrice: 0.6786,
  totalUSDT: 10321.906591025014
}
>>>>> order {
  timestamp: '2022-01-22T07:31:00+07:00',
  datetime: 1642811460000,
  symbol: 'ONG/USDT',
  type: 'market',
  timeInForce: 'GTC',
  side: 'sell',
  price: 0.661,
  amount: 4420.866489832008,
  cost: 2922.192749778957,
  average: 43394.61,
  filled: 0.002309,
  remaining: 0,
  status: 'closed'
}
>>>>> item1st {
  time: 1642811460000,
  timestamp: '2022-01-22T07:31:00+07:00',
  open: 0.681,
  high: 0.681,
  low: 0.6516,
  close: 0.661,
  volume: 66013,
  status: 'down',
  change: -2.9368575624082256,
  applitude: 4.511970534069996,
  lockItem: 0
}
stopLoss difPc:  -2.5935750073681034
Balance: ONG 0, USDT: 10244.09934080397
Total USDT: 10244.09934080397. 

-----------
>>>>> data  {
  progress: 'buying',
  progress_cmt: 'buying/selling',
  currentPrice: 0.6341,
  currentChart: 'normal',
  currentChart_cmt: 'normal/up/down',
  highPrice: 0,
  lowPrice: 0,
  priceSL: 0,
  buyType: '',
  buyType_cmt: 'du_dinh',
  balance: { USDT: 10244.09934080397, ONG: 0 },
  buyAmount: 0,
  buyPrice: 0,
  totalUSDT: 10244.09934080397
}
>>>>> order {
  timestamp: '2022-01-22T07:50:00+07:00',
  datetime: 1642812600000,
  symbol: 'ONG/USDT',
  type: 'market',
  timeInForce: 'GTC',
  side: 'buy',
  price: 0.6341,
  amount: 4731.114966093676,
  cost: 3000,
  average: 43394.61,
  filled: 0.002309,
  remaining: 0,
  status: 'closed'
}
>>>>> item1st {
  time: 1642812600000,
  timestamp: '2022-01-22T07:50:00+07:00',
  open: 0.6336,
  high: 0.6353,
  low: 0.6319,
  close: 0.6341,
  volume: 4038,
  status: 'up',
  change: 0.07891414141413272,
  applitude: 0.538059819591701,
  lockItem: 0
}
Balance: ONG 4731.114966093676, USDT: 7244.09934080397
Total USDT: 10244.09934080397. 

-----------
>>>>> data  {
  progress: 'selling',
  progress_cmt: 'buying/selling',
  currentPrice: 0.6472,
  currentChart: 'up',
  currentChart_cmt: 'normal/up/down',
  highPrice: 0.6472,
  lowPrice: 0,
  priceSL: 0,
  buyType: 'du_dinh',
  buyType_cmt: 'du_dinh',
  balance: { USDT: 7244.09934080397, ONG: 4731.114966093676 },
  buyAmount: 4731.114966093676,
  buyPrice: 0.6341,
  totalUSDT: 10244.09934080397
}
>>>>> order {
  timestamp: '2022-01-22T07:52:00+07:00',
  datetime: 1642812720000,
  symbol: 'ONG/USDT',
  type: 'market',
  timeInForce: 'GTC',
  side: 'sell',
  price: 0.6472,
  amount: 4731.114966093676,
  cost: 3061.9776060558274,
  average: 43394.61,
  filled: 0.002309,
  remaining: 0,
  status: 'closed'
}
>>>>> item1st {
  time: 1642812720000,
  timestamp: '2022-01-22T07:52:00+07:00',
  open: 0.6407,
  high: 0.6497,
  low: 0.6407,
  close: 0.6472,
  volume: 9950,
  status: 'up',
  change: 1.0145153738098875,
  applitude: 1.4047135945060103,
  lockItem: 0
}
TP difPc:  2.0659202018609055
Balance: ONG 0, USDT: 10306.076946859797
Total USDT: 10306.076946859797. 

-----------
>>>>> data  {
  progress: 'buying',
  progress_cmt: 'buying/selling',
  currentPrice: 0.6435,
  currentChart: 'normal',
  currentChart_cmt: 'normal/up/down',
  highPrice: 0,
  lowPrice: 0,
  priceSL: 0,
  buyType: '',
  buyType_cmt: 'du_dinh',
  balance: { USDT: 10306.076946859797, ONG: 0 },
  buyAmount: 0,
  buyPrice: 0,
  totalUSDT: 10306.076946859797
}
>>>>> order {
  timestamp: '2022-01-22T08:00:00+07:00',
  datetime: 1642813200000,
  symbol: 'ONG/USDT',
  type: 'market',
  timeInForce: 'GTC',
  side: 'buy',
  price: 0.6435,
  amount: 4662.004662004662,
  cost: 3000,
  average: 43394.61,
  filled: 0.002309,
  remaining: 0,
  status: 'closed'
}
>>>>> item1st {
  time: 1642813200000,
  timestamp: '2022-01-22T08:00:00+07:00',
  open: 0.6406,
  high: 0.6435,
  low: 0.6401,
  close: 0.6435,
  volume: 8770,
  status: 'up',
  change: 0.4527005931938829,
  applitude: 0.531167005155438,
  lockItem: 0
}
Balance: ONG 4662.004662004662, USDT: 7306.076946859797
Total USDT: 10306.076946859797. 

-----------
>>>>> data  {
  progress: 'selling',
  progress_cmt: 'buying/selling',
  currentPrice: 0.6618,
  currentChart: 'up',
  currentChart_cmt: 'normal/up/down',
  highPrice: 0.6618,
  lowPrice: 0,
  priceSL: 0,
  buyType: 'du_dinh',
  buyType_cmt: 'du_dinh',
  balance: { USDT: 7306.076946859797, ONG: 4662.004662004662 },
  buyAmount: 4662.004662004662,
  buyPrice: 0.6435,
  totalUSDT: 10306.076946859797
}
>>>>> order {
  timestamp: '2022-01-22T08:02:00+07:00',
  datetime: 1642813320000,
  symbol: 'ONG/USDT',
  type: 'market',
  timeInForce: 'GTC',
  side: 'sell',
  price: 0.6618,
  amount: 4662.004662004662,
  cost: 3085.314685314686,
  average: 43394.61,
  filled: 0.002309,
  remaining: 0,
  status: 'closed'
}
>>>>> item1st {
  time: 1642813320000,
  timestamp: '2022-01-22T08:02:00+07:00',
  open: 0.6489,
  high: 0.6618,
  low: 0.6488,
  close: 0.6618,
  volume: 7699,
  status: 'up',
  change: 1.987979657882574,
  applitude: 2.003699136868066,
  lockItem: 0
}
TP difPc:  2.8438228438228585
Balance: ONG 0, USDT: 10391.391632174484
Total USDT: 10391.391632174484. 

-----------
>>>>> data  {
  progress: 'buying',
  progress_cmt: 'buying/selling',
  currentPrice: 0.66,
  currentChart: 'normal',
  currentChart_cmt: 'normal/up/down',
  highPrice: 0,
  lowPrice: 0,
  priceSL: 0,
  buyType: '',
  buyType_cmt: 'du_dinh',
  balance: { USDT: 10391.391632174484, ONG: 0 },
  buyAmount: 0,
  buyPrice: 0,
  totalUSDT: 10391.391632174484
}
>>>>> order {
  timestamp: '2022-01-22T08:17:00+07:00',
  datetime: 1642814220000,
  symbol: 'ONG/USDT',
  type: 'market',
  timeInForce: 'GTC',
  side: 'buy',
  price: 0.66,
  amount: 4545.454545454545,
  cost: 3000,
  average: 43394.61,
  filled: 0.002309,
  remaining: 0,
  status: 'closed'
}
>>>>> item1st {
  time: 1642814220000,
  timestamp: '2022-01-22T08:17:00+07:00',
  open: 0.6562,
  high: 0.6643,
  low: 0.6562,
  close: 0.66,
  volume: 10747,
  status: 'up',
  change: 0.5790917403230761,
  applitude: 1.2343797622676007,
  lockItem: 0
}
Balance: ONG 4545.454545454545, USDT: 7391.391632174484
Total USDT: 10391.391632174484. 

-----------
>>>>> data  {
  progress: 'selling',
  progress_cmt: 'buying/selling',
  currentPrice: 0.6445,
  currentChart: 'down',
  currentChart_cmt: 'normal/up/down',
  highPrice: 0.657,
  lowPrice: 0,
  priceSL: 0,
  buyType: 'du_dinh',
  buyType_cmt: 'du_dinh',
  balance: { USDT: 7391.391632174484, ONG: 4545.454545454545 },
  buyAmount: 4545.454545454545,
  buyPrice: 0.66,
  totalUSDT: 10391.391632174484
}
>>>>> order {
  timestamp: '2022-01-22T08:38:00+07:00',
  datetime: 1642815480000,
  symbol: 'ONG/USDT',
  type: 'market',
  timeInForce: 'GTC',
  side: 'sell',
  price: 0.6445,
  amount: 4545.454545454545,
  cost: 2929.545454545454,
  average: 43394.61,
  filled: 0.002309,
  remaining: 0,
  status: 'closed'
}
>>>>> item1st {
  time: 1642815480000,
  timestamp: '2022-01-22T08:38:00+07:00',
  open: 0.6483,
  high: 0.6483,
  low: 0.6445,
  close: 0.6445,
  volume: 2419,
  status: 'down',
  change: -0.5861483880919367,
  applitude: 0.5896043444530684,
  lockItem: 0
}
stopLoss difPc:  -2.348484848484859
Balance: ONG 0, USDT: 10320.937086719938
Total USDT: 10320.937086719938. 

-----------
>>>>> data  {
  progress: 'buying',
  progress_cmt: 'buying/selling',
  currentPrice: 0.6472,
  currentChart: 'normal',
  currentChart_cmt: 'normal/up/down',
  highPrice: 0,
  lowPrice: 0,
  priceSL: 0,
  buyType: '',
  buyType_cmt: 'du_dinh',
  balance: { USDT: 10320.937086719938, ONG: 0 },
  buyAmount: 0,
  buyPrice: 0,
  totalUSDT: 10320.937086719938
}
>>>>> order {
  timestamp: '2022-01-22T08:45:00+07:00',
  datetime: 1642815900000,
  symbol: 'ONG/USDT',
  type: 'market',
  timeInForce: 'GTC',
  side: 'buy',
  price: 0.6472,
  amount: 4635.352286773795,
  cost: 3000,
  average: 43394.61,
  filled: 0.002309,
  remaining: 0,
  status: 'closed'
}
>>>>> item1st {
  time: 1642815900000,
  timestamp: '2022-01-22T08:45:00+07:00',
  open: 0.6435,
  high: 0.6475,
  low: 0.6435,
  close: 0.6472,
  volume: 3329,
  status: 'up',
  change: 0.5749805749805807,
  applitude: 0.6216006216006222,
  lockItem: 0
}
Balance: ONG 4635.352286773795, USDT: 7320.937086719938
Total USDT: 10320.937086719938. 

-----------
>>>>> data  {
  progress: 'selling',
  progress_cmt: 'buying/selling',
  currentPrice: 0.633,
  currentChart: 'down',
  currentChart_cmt: 'normal/up/down',
  highPrice: 0.6538,
  lowPrice: 0,
  priceSL: 0,
  buyType: 'du_dinh',
  buyType_cmt: 'du_dinh',
  balance: { USDT: 7320.937086719938, ONG: 4635.352286773795 },
  buyAmount: 4635.352286773795,
  buyPrice: 0.6472,
  totalUSDT: 10320.937086719938
}
>>>>> order {
  timestamp: '2022-01-22T09:19:00+07:00',
  datetime: 1642817940000,
  symbol: 'ONG/USDT',
  type: 'market',
  timeInForce: 'GTC',
  side: 'sell',
  price: 0.633,
  amount: 4635.352286773795,
  cost: 2934.1779975278123,
  average: 43394.61,
  filled: 0.002309,
  remaining: 0,
  status: 'closed'
}
>>>>> item1st {
  time: 1642817940000,
  timestamp: '2022-01-22T09:19:00+07:00',
  open: 0.6346,
  high: 0.6348,
  low: 0.6318,
  close: 0.633,
  volume: 5997,
  status: 'down',
  change: -0.2521273242987781,
  applitude: 0.4748338081671419,
  lockItem: 0
}
stopLoss difPc:  -2.194066749072928
Balance: ONG 0, USDT: 10255.115084247751
Total USDT: 10255.115084247751. 

-----------
>>>>> data  {
  progress: 'buying',
  progress_cmt: 'buying/selling',
  currentPrice: 0.6417,
  currentChart: 'normal',
  currentChart_cmt: 'normal/up/down',
  highPrice: 0,
  lowPrice: 0,
  priceSL: 0,
  buyType: '',
  buyType_cmt: 'du_dinh',
  balance: { USDT: 10255.115084247751, ONG: 0 },
  buyAmount: 0,
  buyPrice: 0,
  totalUSDT: 10255.115084247751
}
>>>>> order {
  timestamp: '2022-01-22T09:29:00+07:00',
  datetime: 1642818540000,
  symbol: 'ONG/USDT',
  type: 'market',
  timeInForce: 'GTC',
  side: 'buy',
  price: 0.6417,
  amount: 4675.081813931743,
  cost: 3000,
  average: 43394.61,
  filled: 0.002309,
  remaining: 0,
  status: 'closed'
}
>>>>> item1st {
  time: 1642818540000,
  timestamp: '2022-01-22T09:29:00+07:00',
  open: 0.6399,
  high: 0.6479,
  low: 0.6399,
  close: 0.6417,
  volume: 17929,
  status: 'up',
  change: 0.28129395218003184,
  applitude: 1.2501953430223482,
  lockItem: 0
}
Balance: ONG 4675.081813931743, USDT: 7255.115084247751
Total USDT: 10255.115084247751. 

-----------
>>>>> data  {
  progress: 'selling',
  progress_cmt: 'buying/selling',
  currentPrice: 0.6556,
  currentChart: 'up',
  currentChart_cmt: 'normal/up/down',
  highPrice: 0.6556,
  lowPrice: 0,
  priceSL: 0,
  buyType: 'du_dinh',
  buyType_cmt: 'du_dinh',
  balance: { USDT: 7255.115084247751, ONG: 4675.081813931743 },
  buyAmount: 4675.081813931743,
  buyPrice: 0.6417,
  totalUSDT: 10255.115084247751
}
>>>>> order {
  timestamp: '2022-01-22T10:05:00+07:00',
  datetime: 1642820700000,
  symbol: 'ONG/USDT',
  type: 'market',
  timeInForce: 'GTC',
  side: 'sell',
  price: 0.6556,
  amount: 4675.081813931743,
  cost: 3064.983637213651,
  average: 43394.61,
  filled: 0.002309,
  remaining: 0,
  status: 'closed'
}
>>>>> item1st {
  time: 1642820700000,
  timestamp: '2022-01-22T10:05:00+07:00',
  open: 0.6541,
  high: 0.6584,
  low: 0.6524,
  close: 0.6556,
  volume: 7591,
  status: 'up',
  change: 0.22932273352697535,
  applitude: 0.9196811771919077,
  lockItem: 0
}
TP difPc:  2.1661212404550274
Balance: ONG 0, USDT: 10320.098721461402
Total USDT: 10320.098721461402. 

-----------
>>>>> data  {
  progress: 'buying',
  progress_cmt: 'buying/selling',
  currentPrice: 0.6626,
  currentChart: 'normal',
  currentChart_cmt: 'normal/up/down',
  highPrice: 0,
  lowPrice: 0,
  priceSL: 0,
  buyType: '',
  buyType_cmt: 'du_dinh',
  balance: { USDT: 10320.098721461402, ONG: 0 },
  buyAmount: 0,
  buyPrice: 0,
  totalUSDT: 10320.098721461402
}
>>>>> order {
  timestamp: '2022-01-22T10:08:00+07:00',
  datetime: 1642820880000,
  symbol: 'ONG/USDT',
  type: 'market',
  timeInForce: 'GTC',
  side: 'buy',
  price: 0.6626,
  amount: 4527.618472683369,
  cost: 3000,
  average: 43394.61,
  filled: 0.002309,
  remaining: 0,
  status: 'closed'
}
>>>>> item1st {
  time: 1642820880000,
  timestamp: '2022-01-22T10:08:00+07:00',
  open: 0.657,
  high: 0.6659,
  low: 0.657,
  close: 0.6626,
  volume: 8523,
  status: 'up',
  change: 0.8523592085235827,
  applitude: 1.354642313546426,
  lockItem: 0
}
Balance: ONG 4527.618472683369, USDT: 7320.0987214614015
Total USDT: 10320.098721461402. 

-----------
>>>>> data  {
  progress: 'selling',
  progress_cmt: 'buying/selling',
  currentPrice: 0.6484,
  currentChart: 'down',
  currentChart_cmt: 'normal/up/down',
  highPrice: 0.6628,
  lowPrice: 0,
  priceSL: 0,
  buyType: 'du_dinh',
  buyType_cmt: 'du_dinh',
  balance: { USDT: 7320.0987214614015, ONG: 4527.618472683369 },
  buyAmount: 4527.618472683369,
  buyPrice: 0.6626,
  totalUSDT: 10320.098721461402
}
>>>>> order {
  timestamp: '2022-01-22T10:43:00+07:00',
  datetime: 1642822980000,
  symbol: 'ONG/USDT',
  type: 'market',
  timeInForce: 'GTC',
  side: 'sell',
  price: 0.6484,
  amount: 4527.618472683369,
  cost: 2935.7078176878963,
  average: 43394.61,
  filled: 0.002309,
  remaining: 0,
  status: 'closed'
}
>>>>> item1st {
  time: 1642822980000,
  timestamp: '2022-01-22T10:43:00+07:00',
  open: 0.6496,
  high: 0.6496,
  low: 0.6467,
  close: 0.6484,
  volume: 981,
  status: 'down',
  change: -0.18472906403940562,
  applitude: 0.4484304932735275,
  lockItem: 0
}
stopLoss difPc:  -2.143072743736793
Balance: ONG 0, USDT: 10255.806539149298
Total USDT: 10255.806539149298. 

-----------
>>>>> data  {
  progress: 'buying',
  progress_cmt: 'buying/selling',
  currentPrice: 0.6825,
  currentChart: 'normal',
  currentChart_cmt: 'normal/up/down',
  highPrice: 0,
  lowPrice: 0,
  priceSL: 0,
  buyType: '',
  buyType_cmt: 'du_dinh',
  balance: { USDT: 10255.806539149298, ONG: 0 },
  buyAmount: 0,
  buyPrice: 0,
  totalUSDT: 10255.806539149298
}
>>>>> order {
  timestamp: '2022-01-22T11:52:00+07:00',
  datetime: 1642827120000,
  symbol: 'ONG/USDT',
  type: 'market',
  timeInForce: 'GTC',
  side: 'buy',
  price: 0.6825,
  amount: 4395.604395604396,
  cost: 3000,
  average: 43394.61,
  filled: 0.002309,
  remaining: 0,
  status: 'closed'
}
>>>>> item1st {
  time: 1642827120000,
  timestamp: '2022-01-22T11:52:00+07:00',
  open: 0.6775,
  high: 0.6864,
  low: 0.6764,
  close: 0.6825,
  volume: 18043,
  status: 'up',
  change: 0.7380073800738014,
  applitude: 1.4784151389710243,
  lockItem: 0
}
Balance: ONG 4395.604395604396, USDT: 7255.806539149298
Total USDT: 10255.806539149298. 

-----------
>>>>> data  {
  progress: 'selling',
  progress_cmt: 'buying/selling',
  currentPrice: 0.6975,
  currentChart: 'up',
  currentChart_cmt: 'normal/up/down',
  highPrice: 0.6975,
  lowPrice: 0,
  priceSL: 0,
  buyType: 'du_dinh',
  buyType_cmt: 'du_dinh',
  balance: { USDT: 7255.806539149298, ONG: 4395.604395604396 },
  buyAmount: 4395.604395604396,
  buyPrice: 0.6825,
  totalUSDT: 10255.806539149298
}
>>>>> order {
  timestamp: '2022-01-22T12:04:00+07:00',
  datetime: 1642827840000,
  symbol: 'ONG/USDT',
  type: 'market',
  timeInForce: 'GTC',
  side: 'sell',
  price: 0.6975,
  amount: 4395.604395604396,
  cost: 3065.934065934066,
  average: 43394.61,
  filled: 0.002309,
  remaining: 0,
  status: 'closed'
}
>>>>> item1st {
  time: 1642827840000,
  timestamp: '2022-01-22T12:04:00+07:00',
  open: 0.6953,
  high: 0.6998,
  low: 0.6893,
  close: 0.6975,
  volume: 33020,
  status: 'up',
  change: 0.3164101826549662,
  applitude: 1.5232844915131225,
  lockItem: 0
}
TP difPc:  2.1978021978021998
Balance: ONG 0, USDT: 10321.740605083363
Total USDT: 10321.740605083363. 

-----------
>>>>> data  {
  progress: 'buying',
  progress_cmt: 'buying/selling',
  currentPrice: 0.728,
  currentChart: 'normal',
  currentChart_cmt: 'normal/up/down',
  highPrice: 0,
  lowPrice: 0,
  priceSL: 0,
  buyType: '',
  buyType_cmt: 'du_dinh',
  balance: { USDT: 10321.740605083363, ONG: 0 },
  buyAmount: 0,
  buyPrice: 0,
  totalUSDT: 10321.740605083363
}
>>>>> order {
  timestamp: '2022-01-22T12:07:00+07:00',
  datetime: 1642828020000,
  symbol: 'ONG/USDT',
  type: 'market',
  timeInForce: 'GTC',
  side: 'buy',
  price: 0.728,
  amount: 4120.879120879121,
  cost: 3000,
  average: 43394.61,
  filled: 0.002309,
  remaining: 0,
  status: 'closed'
}
>>>>> item1st {
  time: 1642828020000,
  timestamp: '2022-01-22T12:07:00+07:00',
  open: 0.7055,
  high: 0.7281,
  low: 0.702,
  close: 0.728,
  volume: 133354,
  status: 'up',
  change: 3.1892274982282016,
  applitude: 3.71794871794872,
  lockItem: 0
}
Balance: ONG 4120.879120879121, USDT: 7321.740605083363
Total USDT: 10321.740605083363. 

-----------
>>>>> data  {
  progress: 'selling',
  progress_cmt: 'buying/selling',
  currentPrice: 0.751,
  currentChart: 'up',
  currentChart_cmt: 'normal/up/down',
  highPrice: 0.751,
  lowPrice: 0,
  priceSL: 0,
  buyType: 'du_dinh',
  buyType_cmt: 'du_dinh',
  balance: { USDT: 7321.740605083363, ONG: 4120.879120879121 },
  buyAmount: 4120.879120879121,
  buyPrice: 0.728,
  totalUSDT: 10321.740605083363
}
>>>>> order {
  timestamp: '2022-01-22T12:13:00+07:00',
  datetime: 1642828380000,
  symbol: 'ONG/USDT',
  type: 'market',
  timeInForce: 'GTC',
  side: 'sell',
  price: 0.751,
  amount: 4120.879120879121,
  cost: 3094.78021978022,
  average: 43394.61,
  filled: 0.002309,
  remaining: 0,
  status: 'closed'
}
>>>>> item1st {
  time: 1642828380000,
  timestamp: '2022-01-22T12:13:00+07:00',
  open: 0.7459,
  high: 0.76,
  low: 0.7389,
  close: 0.751,
  volume: 51976,
  status: 'up',
  change: 0.6837377664566286,
  applitude: 2.8555961564487764,
  lockItem: 0
}
TP difPc:  3.1593406593406623
Balance: ONG 0, USDT: 10416.520824863583
Total USDT: 10416.520824863583. 

-----------
>>>>> data  {
  progress: 'buying',
  progress_cmt: 'buying/selling',
  currentPrice: 0.7977,
  currentChart: 'normal',
  currentChart_cmt: 'normal/up/down',
  highPrice: 0,
  lowPrice: 0,
  priceSL: 0,
  buyType: '',
  buyType_cmt: 'du_dinh',
  balance: { USDT: 10416.520824863583, ONG: 0 },
  buyAmount: 0,
  buyPrice: 0,
  totalUSDT: 10416.520824863583
}
>>>>> order {
  timestamp: '2022-01-22T12:19:00+07:00',
  datetime: 1642828740000,
  symbol: 'ONG/USDT',
  type: 'market',
  timeInForce: 'GTC',
  side: 'buy',
  price: 0.7977,
  amount: 3760.8123354644604,
  cost: 3000,
  average: 43394.61,
  filled: 0.002309,
  remaining: 0,
  status: 'closed'
}
>>>>> item1st {
  time: 1642828740000,
  timestamp: '2022-01-22T12:19:00+07:00',
  open: 0.795,
  high: 0.8255,
  low: 0.7894,
  close: 0.7977,
  volume: 233311,
  status: 'up',
  change: 0.33962264150942445,
  applitude: 4.573093488725617,
  lockItem: 0
}
Balance: ONG 3760.8123354644604, USDT: 7416.520824863583
Total USDT: 10416.520824863583. 

-----------
>>>>> data  {
  progress: 'selling',
  progress_cmt: 'buying/selling',
  currentPrice: 0.7682,
  currentChart: 'down',
  currentChart_cmt: 'normal/up/down',
  highPrice: 0.7682,
  lowPrice: 0,
  priceSL: 0,
  buyType: 'du_dinh',
  buyType_cmt: 'du_dinh',
  balance: { USDT: 7416.520824863583, ONG: 3760.8123354644604 },
  buyAmount: 3760.8123354644604,
  buyPrice: 0.7977,
  totalUSDT: 10416.520824863583
}
>>>>> order {
  timestamp: '2022-01-22T12:20:00+07:00',
  datetime: 1642828800000,
  symbol: 'ONG/USDT',
  type: 'market',
  timeInForce: 'GTC',
  side: 'sell',
  price: 0.7682,
  amount: 3760.8123354644604,
  cost: 2889.0560361037983,
  average: 43394.61,
  filled: 0.002309,
  remaining: 0,
  status: 'closed'
}
>>>>> item1st {
  time: 1642828800000,
  timestamp: '2022-01-22T12:20:00+07:00',
  open: 0.799,
  high: 0.7992,
  low: 0.7475,
  close: 0.7682,
  volume: 278671,
  status: 'down',
  change: -3.8548185231539485,
  applitude: 6.916387959866215,
  lockItem: 0
}
stopLoss difPc:  -3.6981321298733825
Balance: ONG 0, USDT: 10305.576860967381
Total USDT: 10305.576860967381. 

-----------
>>>>> data  {
  progress: 'buying',
  progress_cmt: 'buying/selling',
  currentPrice: 0.8082,
  currentChart: 'normal',
  currentChart_cmt: 'normal/up/down',
  highPrice: 0,
  lowPrice: 0,
  priceSL: 0,
  buyType: '',
  buyType_cmt: 'du_dinh',
  balance: { USDT: 10305.576860967381, ONG: 0 },
  buyAmount: 0,
  buyPrice: 0,
  totalUSDT: 10305.576860967381
}
>>>>> order {
  timestamp: '2022-01-22T12:24:00+07:00',
  datetime: 1642829040000,
  symbol: 'ONG/USDT',
  type: 'market',
  timeInForce: 'GTC',
  side: 'buy',
  price: 0.8082,
  amount: 3711.9524870081664,
  cost: 3000,
  average: 43394.61,
  filled: 0.002309,
  remaining: 0,
  status: 'closed'
}
>>>>> item1st {
  time: 1642829040000,
  timestamp: '2022-01-22T12:24:00+07:00',
  open: 0.7895,
  high: 0.83,
  low: 0.7863,
  close: 0.8082,
  volume: 211037,
  status: 'up',
  change: 2.3685877137428815,
  applitude: 5.55767518758743,
  lockItem: 0
}
Balance: ONG 3711.9524870081664, USDT: 7305.576860967381
Total USDT: 10305.576860967381. 

-----------
>>>>> data  {
  progress: 'selling',
  progress_cmt: 'buying/selling',
  currentPrice: 0.7808,
  currentChart: 'down',
  currentChart_cmt: 'normal/up/down',
  highPrice: 0.8234,
  lowPrice: 0,
  priceSL: 0,
  buyType: 'du_dinh',
  buyType_cmt: 'du_dinh',
  balance: { USDT: 7305.576860967381, ONG: 3711.9524870081664 },
  buyAmount: 3711.9524870081664,
  buyPrice: 0.8082,
  totalUSDT: 10305.576860967381
}
>>>>> order {
  timestamp: '2022-01-22T12:36:00+07:00',
  datetime: 1642829760000,
  symbol: 'ONG/USDT',
  type: 'market',
  timeInForce: 'GTC',
  side: 'sell',
  price: 0.7808,
  amount: 3711.9524870081664,
  cost: 2898.2925018559763,
  average: 43394.61,
  filled: 0.002309,
  remaining: 0,
  status: 'closed'
}
>>>>> item1st {
  time: 1642829760000,
  timestamp: '2022-01-22T12:36:00+07:00',
  open: 0.8069,
  high: 0.807,
  low: 0.7779,
  close: 0.7808,
  volume: 161816,
  status: 'down',
  change: -3.2346015615317762,
  applitude: 3.7408407250289257,
  lockItem: 0
}
stopLoss difPc:  -3.3902499381341227
Balance: ONG 0, USDT: 10203.869362823358
Total USDT: 10203.869362823358. 

-----------
>>>>> data  {
  progress: 'buying',
  progress_cmt: 'buying/selling',
  currentPrice: 0.769,
  currentChart: 'normal',
  currentChart_cmt: 'normal/up/down',
  highPrice: 0,
  lowPrice: 0,
  priceSL: 0,
  buyType: '',
  buyType_cmt: 'du_dinh',
  balance: { USDT: 10203.869362823358, ONG: 0 },
  buyAmount: 0,
  buyPrice: 0,
  totalUSDT: 10203.869362823358
}
>>>>> order {
  timestamp: '2022-01-22T12:51:00+07:00',
  datetime: 1642830660000,
  symbol: 'ONG/USDT',
  type: 'market',
  timeInForce: 'GTC',
  side: 'buy',
  price: 0.769,
  amount: 3901.1703511053315,
  cost: 3000,
  average: 43394.61,
  filled: 0.002309,
  remaining: 0,
  status: 'closed'
}
>>>>> item1st {
  time: 1642830660000,
  timestamp: '2022-01-22T12:51:00+07:00',
  open: 0.7597,
  high: 0.7768,
  low: 0.7596,
  close: 0.769,
  volume: 50995,
  status: 'up',
  change: 1.2241674345136204,
  applitude: 2.2643496577145856,
  lockItem: 0
}
Balance: ONG 3901.1703511053315, USDT: 7203.869362823358
Total USDT: 10203.869362823358. 

-----------
>>>>> data  {
  progress: 'selling',
  progress_cmt: 'buying/selling',
  currentPrice: 0.7481,
  currentChart: 'down',
  currentChart_cmt: 'normal/up/down',
  highPrice: 0.7667,
  lowPrice: 0,
  priceSL: 0,
  buyType: 'du_dinh',
  buyType_cmt: 'du_dinh',
  balance: { USDT: 7203.869362823358, ONG: 3901.1703511053315 },
  buyAmount: 3901.1703511053315,
  buyPrice: 0.769,
  totalUSDT: 10203.869362823358
}
>>>>> order {
  timestamp: '2022-01-22T12:55:00+07:00',
  datetime: 1642830900000,
  symbol: 'ONG/USDT',
  type: 'market',
  timeInForce: 'GTC',
  side: 'sell',
  price: 0.7481,
  amount: 3901.1703511053315,
  cost: 2918.4655396618987,
  average: 43394.61,
  filled: 0.002309,
  remaining: 0,
  status: 'closed'
}
>>>>> item1st {
  time: 1642830900000,
  timestamp: '2022-01-22T12:55:00+07:00',
  open: 0.7629,
  high: 0.7669,
  low: 0.7464,
  close: 0.7481,
  volume: 33242,
  status: 'down',
  change: -1.9399659195176346,
  applitude: 2.7465166130761087,
  lockItem: 0
}
stopLoss difPc:  -2.717815344603385
Balance: ONG 0, USDT: 10122.334902485256
Total USDT: 10122.334902485256. 

-----------
>>>>> data  {
  progress: 'buying',
  progress_cmt: 'buying/selling',
  currentPrice: 0.7646,
  currentChart: 'normal',
  currentChart_cmt: 'normal/up/down',
  highPrice: 0,
  lowPrice: 0,
  priceSL: 0,
  buyType: '',
  buyType_cmt: 'du_dinh',
  balance: { USDT: 10122.334902485256, ONG: 0 },
  buyAmount: 0,
  buyPrice: 0,
  totalUSDT: 10122.334902485256
}
>>>>> order {
  timestamp: '2022-01-22T12:59:00+07:00',
  datetime: 1642831140000,
  symbol: 'ONG/USDT',
  type: 'market',
  timeInForce: 'GTC',
  side: 'buy',
  price: 0.7646,
  amount: 3923.620193565263,
  cost: 3000,
  average: 43394.61,
  filled: 0.002309,
  remaining: 0,
  status: 'closed'
}
>>>>> item1st {
  time: 1642831140000,
  timestamp: '2022-01-22T12:59:00+07:00',
  open: 0.7592,
  high: 0.769,
  low: 0.7592,
  close: 0.7646,
  volume: 27935,
  status: 'up',
  change: 0.7112750263435142,
  applitude: 1.2908324552160209,
  lockItem: 0
}
Balance: ONG 3923.620193565263, USDT: 7122.334902485256
Total USDT: 10122.334902485256. 

-----------
>>>>> data  {
  progress: 'selling',
  progress_cmt: 'buying/selling',
  currentPrice: 0.7825,
  currentChart: 'up',
  currentChart_cmt: 'normal/up/down',
  highPrice: 0.7825,
  lowPrice: 0,
  priceSL: 0,
  buyType: 'du_dinh',
  buyType_cmt: 'du_dinh',
  balance: { USDT: 7122.334902485256, ONG: 3923.620193565263 },
  buyAmount: 3923.620193565263,
  buyPrice: 0.7646,
  totalUSDT: 10122.334902485256
}
>>>>> order {
  timestamp: '2022-01-22T13:06:00+07:00',
  datetime: 1642831560000,
  symbol: 'ONG/USDT',
  type: 'market',
  timeInForce: 'GTC',
  side: 'sell',
  price: 0.7825,
  amount: 3923.620193565263,
  cost: 3070.2328014648183,
  average: 43394.61,
  filled: 0.002309,
  remaining: 0,
  status: 'closed'
}
>>>>> item1st {
  time: 1642831560000,
  timestamp: '2022-01-22T13:06:00+07:00',
  open: 0.7759,
  high: 0.7847,
  low: 0.7758,
  close: 0.7825,
  volume: 23332,
  status: 'up',
  change: 0.8506250805516096,
  applitude: 1.1472028873420865,
  lockItem: 0
}
TP difPc:  2.3410933821606106
Balance: ONG 0, USDT: 10192.567703950073
Total USDT: 10192.567703950073. 

-----------
>>>>> data  {
  progress: 'buying',
  progress_cmt: 'buying/selling',
  currentPrice: 0.7562,
  currentChart: 'normal',
  currentChart_cmt: 'normal/up/down',
  highPrice: 0,
  lowPrice: 0,
  priceSL: 0,
  buyType: '',
  buyType_cmt: 'du_dinh',
  balance: { USDT: 10192.567703950073, ONG: 0 },
  buyAmount: 0,
  buyPrice: 0,
  totalUSDT: 10192.567703950073
}
>>>>> order {
  timestamp: '2022-01-22T13:25:00+07:00',
  datetime: 1642832700000,
  symbol: 'ONG/USDT',
  type: 'market',
  timeInForce: 'GTC',
  side: 'buy',
  price: 0.7562,
  amount: 3967.204443268977,
  cost: 3000,
  average: 43394.61,
  filled: 0.002309,
  remaining: 0,
  status: 'closed'
}
>>>>> item1st {
  time: 1642832700000,
  timestamp: '2022-01-22T13:25:00+07:00',
  open: 0.75,
  high: 0.7562,
  low: 0.7482,
  close: 0.7562,
  volume: 24975,
  status: 'up',
  change: 0.8266666666666644,
  applitude: 1.0692328254477421,
  lockItem: 0
}
Balance: ONG 3967.204443268977, USDT: 7192.567703950073
Total USDT: 10192.567703950073. 

-----------
>>>>> data  {
  progress: 'selling',
  progress_cmt: 'buying/selling',
  currentPrice: 0.72,
  currentChart: 'down',
  currentChart_cmt: 'normal/up/down',
  highPrice: 0.7523,
  lowPrice: 0,
  priceSL: 0,
  buyType: 'du_dinh',
  buyType_cmt: 'du_dinh',
  balance: { USDT: 7192.567703950073, ONG: 3967.204443268977 },
  buyAmount: 3967.204443268977,
  buyPrice: 0.7562,
  totalUSDT: 10192.567703950073
}
>>>>> order {
  timestamp: '2022-01-22T13:28:00+07:00',
  datetime: 1642832880000,
  symbol: 'ONG/USDT',
  type: 'market',
  timeInForce: 'GTC',
  side: 'sell',
  price: 0.72,
  amount: 3967.204443268977,
  cost: 2856.387199153663,
  average: 43394.61,
  filled: 0.002309,
  remaining: 0,
  status: 'closed'
}
>>>>> item1st {
  time: 1642832880000,
  timestamp: '2022-01-22T13:28:00+07:00',
  open: 0.7442,
  high: 0.7499,
  low: 0.705,
  close: 0.72,
  volume: 229576,
  status: 'down',
  change: -3.251814028486966,
  applitude: 6.368794326241143,
  lockItem: 0
}
stopLoss difPc:  -4.787093361544566
Balance: ONG 0, USDT: 10048.954903103737
Total USDT: 10048.954903103737. 

-----------
>>>>> data  {
  progress: 'buying',
  progress_cmt: 'buying/selling',
  currentPrice: 0.7237,
  currentChart: 'normal',
  currentChart_cmt: 'normal/up/down',
  highPrice: 0,
  lowPrice: 0,
  priceSL: 0,
  buyType: '',
  buyType_cmt: 'du_dinh',
  balance: { USDT: 10048.954903103737, ONG: 0 },
  buyAmount: 0,
  buyPrice: 0,
  totalUSDT: 10048.954903103737
}
>>>>> order {
  timestamp: '2022-01-22T13:46:00+07:00',
  datetime: 1642833960000,
  symbol: 'ONG/USDT',
  type: 'market',
  timeInForce: 'GTC',
  side: 'buy',
  price: 0.7237,
  amount: 4145.364101146884,
  cost: 3000.0000000000005,
  average: 43394.61,
  filled: 0.002309,
  remaining: 0,
  status: 'closed'
}
>>>>> item1st {
  time: 1642833960000,
  timestamp: '2022-01-22T13:46:00+07:00',
  open: 0.72,
  high: 0.7237,
  low: 0.7165,
  close: 0.7237,
  volume: 64159,
  status: 'up',
  change: 0.513888888888894,
  applitude: 1.004884856943473,
  lockItem: 0
}
Balance: ONG 4145.364101146884, USDT: 7048.954903103737
Total USDT: 10048.954903103737. 

-----------
>>>>> data  {
  progress: 'selling',
  progress_cmt: 'buying/selling',
  currentPrice: 0.7479,
  currentChart: 'up',
  currentChart_cmt: 'normal/up/down',
  highPrice: 0.7479,
  lowPrice: 0,
  priceSL: 0,
  buyType: 'du_dinh',
  buyType_cmt: 'du_dinh',
  balance: { USDT: 7048.954903103737, ONG: 4145.364101146884 },
  buyAmount: 4145.364101146884,
  buyPrice: 0.7237,
  totalUSDT: 10048.954903103737
}
>>>>> order {
  timestamp: '2022-01-22T13:52:00+07:00',
  datetime: 1642834320000,
  symbol: 'ONG/USDT',
  type: 'market',
  timeInForce: 'GTC',
  side: 'sell',
  price: 0.7479,
  amount: 4145.364101146884,
  cost: 3100.317811247755,
  average: 43394.61,
  filled: 0.002309,
  remaining: 0,
  status: 'closed'
}
>>>>> item1st {
  time: 1642834320000,
  timestamp: '2022-01-22T13:52:00+07:00',
  open: 0.7356,
  high: 0.7537,
  low: 0.7356,
  close: 0.7479,
  volume: 94057,
  status: 'up',
  change: 1.6721044045676967,
  applitude: 2.46057640021751,
  lockItem: 0
}
TP difPc:  3.3439270415918196
Balance: ONG 0, USDT: 10149.272714351491
Total USDT: 10149.272714351491. 

-----------
>>>>> data  {
  progress: 'buying',
  progress_cmt: 'buying/selling',
  currentPrice: 0.7601,
  currentChart: 'normal',
  currentChart_cmt: 'normal/up/down',
  highPrice: 0,
  lowPrice: 0,
  priceSL: 0,
  buyType: '',
  buyType_cmt: 'du_dinh',
  balance: { USDT: 10149.272714351491, ONG: 0 },
  buyAmount: 0,
  buyPrice: 0,
  totalUSDT: 10149.272714351491
}
>>>>> order {
  timestamp: '2022-01-22T14:11:00+07:00',
  datetime: 1642835460000,
  symbol: 'ONG/USDT',
  type: 'market',
  timeInForce: 'GTC',
  side: 'buy',
  price: 0.7601,
  amount: 3946.8490988027893,
  cost: 3000,
  average: 43394.61,
  filled: 0.002309,
  remaining: 0,
  status: 'closed'
}
>>>>> item1st {
  time: 1642835460000,
  timestamp: '2022-01-22T14:11:00+07:00',
  open: 0.7551,
  high: 0.7637,
  low: 0.7522,
  close: 0.7601,
  volume: 129027,
  status: 'up',
  change: 0.6621639517944649,
  applitude: 1.5288487104493573,
  lockItem: 0
}
Balance: ONG 3946.8490988027893, USDT: 7149.272714351491
Total USDT: 10149.272714351491. 

-----------
>>>>> data  {
  progress: 'selling',
  progress_cmt: 'buying/selling',
  currentPrice: 0.777,
  currentChart: 'up',
  currentChart_cmt: 'normal/up/down',
  highPrice: 0.777,
  lowPrice: 0,
  priceSL: 0,
  buyType: 'du_dinh',
  buyType_cmt: 'du_dinh',
  balance: { USDT: 7149.272714351491, ONG: 3946.8490988027893 },
  buyAmount: 3946.8490988027893,
  buyPrice: 0.7601,
  totalUSDT: 10149.272714351491
}
>>>>> order {
  timestamp: '2022-01-22T14:17:00+07:00',
  datetime: 1642835820000,
  symbol: 'ONG/USDT',
  type: 'market',
  timeInForce: 'GTC',
  side: 'sell',
  price: 0.777,
  amount: 3946.8490988027893,
  cost: 3066.7017497697675,
  average: 43394.61,
  filled: 0.002309,
  remaining: 0,
  status: 'closed'
}
>>>>> item1st {
  time: 1642835820000,
  timestamp: '2022-01-22T14:17:00+07:00',
  open: 0.7669,
  high: 0.7777,
  low: 0.7647,
  close: 0.777,
  volume: 68243,
  status: 'up',
  change: 1.316990481157908,
  applitude: 1.7000130770236563,
  lockItem: 0
}
TP difPc:  2.223391658992241
Balance: ONG 0, USDT: 10215.974464121258
Total USDT: 10215.974464121258. 

-----------
>>>>> data  {
  progress: 'buying',
  progress_cmt: 'buying/selling',
  currentPrice: 0.769,
  currentChart: 'normal',
  currentChart_cmt: 'normal/up/down',
  highPrice: 0,
  lowPrice: 0,
  priceSL: 0,
  buyType: '',
  buyType_cmt: 'du_dinh',
  balance: { USDT: 10215.974464121258, ONG: 0 },
  buyAmount: 0,
  buyPrice: 0,
  totalUSDT: 10215.974464121258
}
>>>>> order {
  timestamp: '2022-01-22T15:01:00+07:00',
  datetime: 1642838460000,
  symbol: 'ONG/USDT',
  type: 'market',
  timeInForce: 'GTC',
  side: 'buy',
  price: 0.769,
  amount: 3901.1703511053315,
  cost: 3000,
  average: 43394.61,
  filled: 0.002309,
  remaining: 0,
  status: 'closed'
}
>>>>> item1st {
  time: 1642838460000,
  timestamp: '2022-01-22T15:01:00+07:00',
  open: 0.763,
  high: 0.769,
  low: 0.7605,
  close: 0.769,
  volume: 17391,
  status: 'up',
  change: 0.7863695937090439,
  applitude: 1.117685733070357,
  lockItem: 0
}
Balance: ONG 3901.1703511053315, USDT: 7215.974464121258
Total USDT: 10215.974464121258. 

-----------
