
đang lấy công thức của ong/log12
-> TL quá nhiều 
-> 500 phút lỗ 180


backlog:

https://drive.google.com/file/d/1KG6V3TESrV-k1XhW24oMPS_VndAWj1MD/view?usp=sharing
xử lý sao ko mua case này
"totalUSDT":9821.097387151278

TP:4
SL:8




{"progress":"selling","progress_cmt":"buying/selling","currentPrice":4.323,"currentChart":"normal","currentChart_cmt":"normal/up/down","affterBuyHighPrice":4.323,"affterBuyLowPrice":4.323,"currentPercentAffterBuy":84.83606557377051,"priceSL":0,"buyType":"du_dinh_co_node_giam","buyType_cmt":"du_dinh/du_dinh_volume/du_dinh_volume_applitude/do_day/ko_do_day/du_dinh_co_node_giam","sellType":"","sellType_cmt":"tp_up_on_top/tp_up_not_fast/tp_down/stop_loss","chartTop":7.22,"chartBottom":4.052,"chartTopHigh":7.061599999999999,"chartTopLow":6.9032,"chartBottomHigh":4.368799999999999,"chartBottomLow":4.2104,"balance":{"USDT":6821.097387151278,"VCOIN":693.9625260235947},"buyAmount":693.9625260235947,"buyPrice":4.323,"totalUSDT":9821.097387151278}

{
  "TRADE_SIZE": 3000,
  "pairs": "API3/USDT",
  "tpMin": 2,
  "tpMax": 95,
  "stopLoss": -2,
  "saleOnTopAcc": 1
}