-> fix case sell sớm: 2022-01-22T07:16:00+07:00
https://drive.google.com/file/d/1AjAvm5wTRtJAvnNp8Lv9ZRo5facP_4xS/view?usp=sharing
- SL: 9
- TP: 11
"totalUSDT":10407.4650557533

backlog:
+ fix buy trễ: 2022-01-22T09:29:00+07:00
-> cần mua sớm hơn 1 node, check thêm điều kiện applitude

{"progress":"selling","progress_cmt":"buying/selling","currentPrice":0.7631,"currentChart":"normal","currentChart_cmt":"normal/up/down","affterBuyHighPrice":0.7631,"affterBuyLowPrice":0.7631,"currentPercentAffterBuy":43.83954154727783,"priceSL":0,"buyType":"du_dinh_co_node_giam","buyType_cmt":"du_dinh/do_day/ko_do_day/du_dinh_co_node_giam","sellType":"","sellType_cmt":"tp_up_on_top/tp_up_not_fast/tp_down/stop_loss","chartTop":0.834,"chartBottom":0.5732,"chartTopHigh":0.8209599999999999,"chartTopLow":0.80792,"chartBottomHigh":0.59928,"chartBottomLow":0.5862400000000001,"balance":{"USDT":7407.4650557533005,"ONG":3931.3327217926876},"buyAmount":3931.3327217926876,"buyPrice":0.7631,"totalUSDT":10407.4650557533}
{
  "TRADE_SIZE": 3000,
  "pairs": "ONG/USDT",
  "tpMin": 2,
  "tpMax": 95,
  "stopLoss": -2,
  "saleOnTopAcc": 1
}
