{
  "TRADE_SIZE": 300,
  "tpMode": "percent",
  "tpCandleTime": "15m",
  "tpMode_cmt": "percent/tpCandle",
  "tpMin": 4,
  "tpMax": 93,
  "stopLoss": -1.7,
  "stopLossBottom": -3,
  "saleOnTopAcc": 1,
  "checkMa7BuySoon": true,
  "checkMa3Buy": true,
  "checkMa3Sell": false,
  "checkMa7BuyUp": 1,
  "checkMa7SellDown": 0,
  "coin": "NEAR",
  "coinTo": "USDT",
  "slContinuousOn": false,
  "slContinuous": 3,
  "ruleNextBuy": "add_more",
  "ruleNextBuy_cmt": "add_more/double/same",
  "SIZE_ADD_MORE": 100,
  "slContinuousTmp": 2,
  "slContinuousTmpOn": false,
  "timeframeRun": "1m",
  "timeframeBotTop": "15m",
  "fetchBotTopLimit": 20,
  "real": true,
  "onlyCheck": false,
  "buyMode": "normal",
  "maxTriggerLoss": 2,
  "buyMode_cmt": "trigger,normal"
}
