{"timestamp":"2022-04-20T22:19:00+07:00","time":1650467940000,"open":0.02384,"high":0.02384,"low":0.02375,"close":0.02375,"volume":1607105,"status":"down","change":-0.3775167785234891,"applitude":0.3789473684210518}
{"timestamp":"2022-04-20T22:20:00+07:00","time":1650468000000,"open":0.02375,"high":0.02378,"low":0.0237,"close":0.02372,"volume":1144101,"status":"down","change":-0.12631578947367905,"applitude":0.3375527426160347}
{"timestamp":"2022-04-20T22:21:00+07:00","time":1650468060000,"open":0.02371,"high":0.02378,"low":0.02369,"close":0.02378,"volume":1255645,"status":"up","change":0.2952340784479149,"applitude":0.3799071338117341}
{"timestamp":"2022-04-20T22:22:00+07:00","time":1650468120000,"open":0.0238,"high":0.02387,"low":0.02379,"close":0.02387,"volume":689357,"status":"up","change":0.29411764705881155,"applitude":0.3362757461118126}
{"timestamp":"2022-04-20T22:23:00+07:00","time":1650468180000,"open":0.02386,"high":0.02407,"low":0.02383,"close":0.02407,"volume":1546538,"status":"up","change":0.8801341156747773,"applitude":1.0071338648762092}
{"timestamp":"2022-04-20T22:24:00+07:00","time":1650468240000,"open":0.02403,"high":0.02417,"low":0.02401,"close":0.02415,"volume":1035125,"status":"up","change":0.4993757802746652,"applitude":0.6663890045814261}
{"timestamp":"2022-04-20T22:25:00+07:00","time":1650468300000,"open":0.02417,"high":0.02424,"low":0.02402,"close":0.02418,"volume":2389679,"status":"up","change":0.04137360364087543,"applitude":0.9159034138218212}
{"timestamp":"2022-04-20T22:26:00+07:00","time":1650468360000,"open":0.02416,"high":0.02416,"low":0.02402,"close":0.02402,"volume":555624,"status":"down","change":-0.5794701986755018,"applitude":0.5828476269775239}
{"timestamp":"2022-04-20T22:27:00+07:00","time":1650468420000,"open":0.02406,"high":0.02408,"low":0.02401,"close":0.02407,"volume":221255,"status":"up","change":0.04156275976724685,"applitude":0.29154518950437575}
{"timestamp":"2022-04-20T22:28:00+07:00","time":1650468480000,"open":0.02406,"high":0.02406,"low":0.02365,"close":0.024,"volume":1593344,"status":"down","change":-0.2493765586034955,"applitude":1.7336152219873178}
{"timestamp":"2022-04-20T22:29:00+07:00","time":1650468540000,"open":0.02398,"high":0.02408,"low":0.02397,"close":0.02407,"volume":332501,"status":"up","change":0.3753127606338607,"applitude":0.45890696704213174}
{"timestamp":"2022-04-20T22:30:00+07:00","time":1650468600000,"open":0.02407,"high":0.02407,"low":0.0239,"close":0.02398,"volume":378947,"status":"down","change":-0.3739094308267545,"applitude":0.7112970711297071}
{"timestamp":"2022-04-20T22:31:00+07:00","time":1650468660000,"open":0.02401,"high":0.02404,"low":0.02393,"close":0.02398,"volume":324472,"status":"down","change":-0.12494793835901198,"applitude":0.4596740493104847}
{"timestamp":"2022-04-20T22:32:00+07:00","time":1650468720000,"open":0.024,"high":0.02427,"low":0.024,"close":0.02416,"volume":1588523,"status":"up","change":0.6666666666666684,"applitude":1.1249999999999976}
{"timestamp":"2022-04-20T22:33:00+07:00","time":1650468780000,"open":0.02419,"high":0.02456,"low":0.02418,"close":0.02452,"volume":3145062,"status":"up","change":1.3642000826787948,"applitude":1.5715467328370487}
{"timestamp":"2022-04-20T22:34:00+07:00","time":1650468840000,"open":0.02451,"high":0.02452,"low":0.02438,"close":0.02449,"volume":2615533,"status":"down","change":-0.08159934720521902,"applitude":0.5742411812961494}
{"timestamp":"2022-04-20T22:35:00+07:00","time":1650468900000,"open":0.02448,"high":0.02465,"low":0.02441,"close":0.02459,"volume":1231385,"status":"up","change":0.44934640522876823,"applitude":0.9832036050798736}
{"timestamp":"2022-04-20T22:36:00+07:00","time":1650468960000,"open":0.02458,"high":0.02458,"low":0.02441,"close":0.02445,"volume":908098,"status":"down","change":-0.5288852725793395,"applitude":0.6964358869315854}
{"timestamp":"2022-04-20T22:37:00+07:00","time":1650469020000,"open":0.02445,"high":0.02446,"low":0.02433,"close":0.02446,"volume":561455,"status":"up","change":0.04089979550102083,"applitude":0.5343197698314762}
{"timestamp":"2022-04-20T22:38:00+07:00","time":1650469080000,"open":0.02447,"high":0.02462,"low":0.02446,"close":0.02448,"volume":949682,"status":"up","change":0.04086636697997382,"applitude":0.6541291905151285}
{"timestamp":"2022-04-20T22:39:00+07:00","time":1650469140000,"open":0.02446,"high":0.0245,"low":0.02441,"close":0.02447,"volume":441701,"status":"up","change":0.040883074407193756,"applitude":0.3687013519049562}
{"timestamp":"2022-04-20T22:40:00+07:00","time":1650469200000,"open":0.02448,"high":0.0246,"low":0.02446,"close":0.02446,"volume":879524,"status":"down","change":-0.08169934640522543,"applitude":0.5723630417007409}
{"timestamp":"2022-04-20T22:41:00+07:00","time":1650469260000,"open":0.02446,"high":0.02456,"low":0.02446,"close":0.02456,"volume":685914,"status":"up","change":0.40883074407195175,"applitude":0.40883074407195175}
{"timestamp":"2022-04-20T22:42:00+07:00","time":1650469320000,"open":0.02455,"high":0.02462,"low":0.02455,"close":0.02462,"volume":662098,"status":"up","change":0.28513238289205955,"applitude":0.28513238289205955}
{"timestamp":"2022-04-20T22:43:00+07:00","time":1650469380000,"open":0.02462,"high":0.02462,"low":0.02433,"close":0.02441,"volume":1295921,"status":"down","change":-0.8529650690495466,"applitude":1.1919441019317656}
{"timestamp":"2022-04-20T22:44:00+07:00","time":1650469440000,"open":0.02442,"high":0.02455,"low":0.02442,"close":0.02454,"volume":466306,"status":"up","change":0.4914004914004856,"applitude":0.5323505323505249}
{"timestamp":"2022-04-20T22:45:00+07:00","time":1650469500000,"open":0.02454,"high":0.0246,"low":0.02454,"close":0.0246,"volume":542224,"status":"up","change":0.24449877750611665,"applitude":0.24449877750611665}
{"timestamp":"2022-04-20T22:46:00+07:00","time":1650469560000,"open":0.02459,"high":0.02459,"low":0.02435,"close":0.02453,"volume":2020257,"status":"down","change":-0.24400162667751535,"applitude":0.9856262833675591}
{"timestamp":"2022-04-20T22:47:00+07:00","time":1650469620000,"open":0.02453,"high":0.02455,"low":0.02444,"close":0.02447,"volume":540904,"status":"down","change":-0.24459845087648197,"applitude":0.4500818330605523}
{"timestamp":"2022-04-20T22:48:00+07:00","time":1650469680000,"open":0.02447,"high":0.02472,"low":0.02447,"close":0.0246,"volume":2900694,"status":"up","change":0.531262770739688,"applitude":1.021659174499388}
{"timestamp":"2022-04-20T22:49:00+07:00","time":1650469740000,"open":0.02461,"high":0.02471,"low":0.02454,"close":0.02463,"volume":1704849,"status":"up","change":0.08126777732628682,"applitude":0.6927465362673187}
{"timestamp":"2022-04-20T22:50:00+07:00","time":1650469800000,"open":0.02465,"high":0.02479,"low":0.02463,"close":0.02478,"volume":1047671,"status":"up","change":0.5273833671399661,"applitude":0.6496142915144151}
{"timestamp":"2022-04-20T22:51:00+07:00","time":1650469860000,"open":0.02478,"high":0.02487,"low":0.0247,"close":0.02478,"volume":5850480,"status":"normal","change":0,"applitude":0.688259109311741}
{"timestamp":"2022-04-20T22:52:00+07:00","time":1650469920000,"open":0.02478,"high":0.025,"low":0.02478,"close":0.02496,"volume":3403804,"status":"up","change":0.726392251815979,"applitude":0.8878127522195377}
{"timestamp":"2022-04-20T22:53:00+07:00","time":1650469980000,"open":0.02496,"high":0.02536,"low":0.02489,"close":0.02532,"volume":9100378,"status":"up","change":1.4423076923076892,"applitude":1.8883085576536829}
{"timestamp":"2022-04-20T22:54:00+07:00","time":1650470040000,"open":0.02534,"high":0.02549,"low":0.02533,"close":0.02548,"volume":7598092,"status":"up","change":0.552486187845295,"applitude":0.631662060797475}
{"timestamp":"2022-04-20T22:55:00+07:00","time":1650470100000,"open":0.02548,"high":0.02549,"low":0.02509,"close":0.02536,"volume":7355455,"status":"down","change":-0.4709576138147511,"applitude":1.594260661618165}
{"timestamp":"2022-04-20T22:56:00+07:00","time":1650470160000,"open":0.02537,"high":0.0256,"low":0.02536,"close":0.0256,"volume":8397939,"status":"up","change":0.9065825778478559,"applitude":0.9463722397476365}
{"timestamp":"2022-04-20T22:57:00+07:00","time":1650470220000,"open":0.02559,"high":0.0258,"low":0.02558,"close":0.02577,"volume":14628288,"status":"up","change":0.7033997655334099,"applitude":0.860046911649732}
{"timestamp":"2022-04-20T22:58:00+07:00","time":1650470280000,"open":0.02577,"high":0.0262,"low":0.02576,"close":0.02593,"volume":16266921,"status":"up","change":0.6208769887466061,"applitude":1.7080745341614882}
{"timestamp":"2022-04-20T22:59:00+07:00","time":1650470340000,"open":0.02595,"high":0.02674,"low":0.02595,"close":0.02639,"volume":21938045,"status":"up","change":1.6955684007707106,"applitude":3.044315992292867}
{"timestamp":"2022-04-20T23:00:00+07:00","time":1650470400000,"open":0.02639,"high":0.02722,"low":0.02634,"close":0.02719,"volume":19772650,"status":"up","change":3.031451307313371,"applitude":3.3409263477600697}
{"timestamp":"2022-04-20T23:01:00+07:00","time":1650470460000,"open":0.02719,"high":0.028,"low":0.02709,"close":0.028,"volume":32883065,"status":"up","change":2.979036410445023,"applitude":3.359173126614991}
{"timestamp":"2022-04-20T23:02:00+07:00","time":1650470520000,"open":0.028,"high":0.0288,"low":0.02794,"close":0.02835,"volume":37266064,"status":"up","change":1.2499999999999987,"applitude":3.0780243378668564}
{"timestamp":"2022-04-20T23:03:00+07:00","time":1650470580000,"open":0.02836,"high":0.02912,"low":0.02731,"close":0.029,"volume":38855361,"status":"up","change":2.256699576868835,"applitude":6.62760893445624}
{"timestamp":"2022-04-20T23:04:00+07:00","time":1650470640000,"open":0.02904,"high":0.02989,"low":0.029,"close":0.02975,"volume":32817762,"status":"up","change":2.4449035812672135,"applitude":3.0689655172413737}
{"timestamp":"2022-04-20T23:05:00+07:00","time":1650470700000,"open":0.02975,"high":0.02982,"low":0.02893,"close":0.02943,"volume":32114841,"status":"down","change":-1.0756302521008316,"applitude":3.0763912893190404}
{"timestamp":"2022-04-20T23:06:00+07:00","time":1650470760000,"open":0.02943,"high":0.02955,"low":0.02815,"close":0.02853,"volume":37276438,"status":"down","change":-3.058103975535173,"applitude":4.973357015985784}
{"timestamp":"2022-04-20T23:07:00+07:00","time":1650470820000,"open":0.02857,"high":0.02937,"low":0.02847,"close":0.02886,"volume":16422165,"status":"up","change":1.015050752537622,"applitude":3.1612223393045364}
{"timestamp":"2022-04-20T23:08:00+07:00","time":1650470880000,"open":0.0289,"high":0.0293,"low":0.02868,"close":0.02918,"volume":11261398,"status":"up","change":0.9688581314878979,"applitude":2.1617852161785183}
{"timestamp":"2022-04-20T23:09:00+07:00","time":1650470940000,"open":0.02918,"high":0.02924,"low":0.02803,"close":0.02825,"volume":19451649,"status":"down","change":-3.1871144619602476,"applitude":4.316803424901888}
{"timestamp":"2022-04-20T23:10:00+07:00","time":1650471000000,"open":0.02821,"high":0.0283,"low":0.02764,"close":0.02775,"volume":25292521,"status":"down","change":-1.630627437079045,"applitude":2.387843704775678}
{"timestamp":"2022-04-20T23:11:00+07:00","time":1650471060000,"open":0.02775,"high":0.02811,"low":0.0277,"close":0.02799,"volume":12236957,"status":"up","change":0.8648648648648671,"applitude":1.4801444043321323}
{"timestamp":"2022-04-20T23:12:00+07:00","time":1650471120000,"open":0.02792,"high":0.02799,"low":0.02754,"close":0.02778,"volume":10048051,"status":"down","change":-0.5014326647564514,"applitude":1.6339869281045842}
{"timestamp":"2022-04-20T23:13:00+07:00","time":1650471180000,"open":0.0278,"high":0.02832,"low":0.02779,"close":0.02824,"volume":12981532,"status":"up","change":1.5827338129496509,"applitude":1.90716084922635}
{"timestamp":"2022-04-20T23:14:00+07:00","time":1650471240000,"open":0.02828,"high":0.02888,"low":0.02801,"close":0.02831,"volume":16599431,"status":"up","change":0.10608203677510177,"applitude":3.1060335594430533}
{"timestamp":"2022-04-20T23:15:00+07:00","time":1650471300000,"open":0.02835,"high":0.02905,"low":0.02831,"close":0.02871,"volume":14506377,"status":"up","change":1.269841269841267,"applitude":2.6139173436948115}
{"timestamp":"2022-04-20T23:16:00+07:00","time":1650471360000,"open":0.02878,"high":0.02899,"low":0.02866,"close":0.0289,"volume":8246393,"status":"up","change":0.4169562195969374,"applitude":1.1514305652477215}
{"timestamp":"2022-04-20T23:17:00+07:00","time":1650471420000,"open":0.02889,"high":0.0289,"low":0.02779,"close":0.02785,"volume":20908285,"status":"down","change":-3.599861543786775,"applitude":3.9942425332853544}
{"timestamp":"2022-04-20T23:18:00+07:00","time":1650471480000,"open":0.02786,"high":0.02812,"low":0.0278,"close":0.02787,"volume":9922026,"status":"up","change":0.035893754486717847,"applitude":1.1510791366906505}
{"timestamp":"2022-04-20T23:19:00+07:00","time":1650471540000,"open":0.02787,"high":0.02787,"low":0.02729,"close":0.0275,"volume":18118107,"status":"down","change":-1.3275923932543912,"applitude":2.1253206302675}
{"timestamp":"2022-04-20T23:20:00+07:00","time":1650471600000,"open":0.02748,"high":0.02792,"low":0.02736,"close":0.0278,"volume":9988808,"status":"up","change":1.16448326055312,"applitude":2.0467836257309995}
{"timestamp":"2022-04-20T23:21:00+07:00","time":1650471660000,"open":0.02776,"high":0.02782,"low":0.02755,"close":0.02767,"volume":6043674,"status":"down","change":-0.32420749279538835,"applitude":0.9800362976406511}
{"timestamp":"2022-04-20T23:22:00+07:00","time":1650471720000,"open":0.02767,"high":0.028,"low":0.02752,"close":0.02761,"volume":4978093,"status":"down","change":-0.2168413444163391,"applitude":1.7441860465116326}
{"timestamp":"2022-04-20T23:23:00+07:00","time":1650471780000,"open":0.02763,"high":0.0277,"low":0.027,"close":0.02716,"volume":11013005,"status":"down","change":-1.7010495837857338,"applitude":2.59259259259259}
{"timestamp":"2022-04-20T23:24:00+07:00","time":1650471840000,"open":0.02714,"high":0.0274,"low":0.02705,"close":0.02725,"volume":7640893,"status":"up","change":0.4053058216654347,"applitude":1.2939001848428822}
{"timestamp":"2022-04-20T23:25:00+07:00","time":1650471900000,"open":0.02725,"high":0.02774,"low":0.02718,"close":0.0276,"volume":6840482,"status":"up","change":1.2844036697247692,"applitude":2.060338484179549}
{"timestamp":"2022-04-20T23:26:00+07:00","time":1650471960000,"open":0.02758,"high":0.02787,"low":0.02758,"close":0.0277,"volume":6820169,"status":"up","change":0.4350978970268259,"applitude":1.0514865844815031}
{"timestamp":"2022-04-20T23:27:00+07:00","time":1650472020000,"open":0.02768,"high":0.02769,"low":0.02721,"close":0.02753,"volume":3045178,"status":"down","change":-0.54190751445087,"applitude":1.7640573318632773}
{"timestamp":"2022-04-20T23:28:00+07:00","time":1650472080000,"open":0.02753,"high":0.02771,"low":0.02747,"close":0.02757,"volume":2590448,"status":"up","change":0.1452960406828981,"applitude":0.8736803785948204}
{"timestamp":"2022-04-20T23:29:00+07:00","time":1650472140000,"open":0.02755,"high":0.02779,"low":0.02742,"close":0.02775,"volume":2436635,"status":"up","change":0.7259528130671462,"applitude":1.3493800145878876}
{"timestamp":"2022-04-20T23:30:00+07:00","time":1650472200000,"open":0.02778,"high":0.02779,"low":0.02747,"close":0.02772,"volume":3796856,"status":"down","change":-0.2159827213822806,"applitude":1.1649071714597647}
{"timestamp":"2022-04-20T23:31:00+07:00","time":1650472260000,"open":0.02772,"high":0.02775,"low":0.02718,"close":0.02719,"volume":4976169,"status":"down","change":-1.9119769119769217,"applitude":2.097130242825611}
{"timestamp":"2022-04-20T23:32:00+07:00","time":1650472320000,"open":0.02723,"high":0.02741,"low":0.02718,"close":0.02735,"volume":2325342,"status":"up","change":0.4406904149834689,"applitude":0.8462104488594593}
{"timestamp":"2022-04-20T23:33:00+07:00","time":1650472380000,"open":0.02735,"high":0.0274,"low":0.02726,"close":0.02729,"volume":1522993,"status":"down","change":-0.21937842778793795,"applitude":0.5135730007336803}
{"timestamp":"2022-04-20T23:34:00+07:00","time":1650472440000,"open":0.02729,"high":0.0273,"low":0.02719,"close":0.02726,"volume":2442140,"status":"down","change":-0.1099303774276247,"applitude":0.40456050018390016}
{"timestamp":"2022-04-20T23:35:00+07:00","time":1650472500000,"open":0.02728,"high":0.02729,"low":0.02681,"close":0.02681,"volume":7602810,"status":"down","change":-1.7228739002932485,"applitude":1.7903767251025653}
{"timestamp":"2022-04-20T23:36:00+07:00","time":1650472560000,"open":0.02685,"high":0.027,"low":0.02678,"close":0.02699,"volume":7066905,"status":"up","change":0.5214152700186266,"applitude":0.8215085884988721}
{"timestamp":"2022-04-20T23:37:00+07:00","time":1650472620000,"open":0.02699,"high":0.02709,"low":0.02691,"close":0.02702,"volume":4206174,"status":"up","change":0.11115227862170722,"applitude":0.6688963210702327}
{"timestamp":"2022-04-20T23:38:00+07:00","time":1650472680000,"open":0.02707,"high":0.0274,"low":0.0268,"close":0.02692,"volume":11609423,"status":"down","change":-0.5541189508681227,"applitude":2.238805970149253}
{"timestamp":"2022-04-20T23:39:00+07:00","time":1650472740000,"open":0.02692,"high":0.02698,"low":0.0267,"close":0.02673,"volume":5217940,"status":"down","change":-0.7057949479940535,"applitude":1.0486891385767751}
{"timestamp":"2022-04-20T23:40:00+07:00","time":1650472800000,"open":0.02674,"high":0.02676,"low":0.0266,"close":0.02666,"volume":2482762,"status":"down","change":-0.29917726252804866,"applitude":0.6015037593984979}
{"timestamp":"2022-04-20T23:41:00+07:00","time":1650472860000,"open":0.02666,"high":0.02741,"low":0.02665,"close":0.02724,"volume":6944166,"status":"up","change":2.1755438859714955,"applitude":2.851782363977487}
{"timestamp":"2022-04-20T23:42:00+07:00","time":1650472920000,"open":0.02725,"high":0.0273,"low":0.02678,"close":0.02692,"volume":3189124,"status":"down","change":-1.2110091743119282,"applitude":1.9417475728155325}
{"timestamp":"2022-04-20T23:43:00+07:00","time":1650472980000,"open":0.02692,"high":0.02704,"low":0.02683,"close":0.027,"volume":1378691,"status":"up","change":0.29717682020802455,"applitude":0.7827059262020196}
{"timestamp":"2022-04-20T23:44:00+07:00","time":1650473040000,"open":0.027,"high":0.02715,"low":0.02686,"close":0.02712,"volume":2337669,"status":"up","change":0.4444444444444392,"applitude":1.0796723752792334}
{"timestamp":"2022-04-20T23:45:00+07:00","time":1650473100000,"open":0.02712,"high":0.02747,"low":0.02703,"close":0.02744,"volume":6222942,"status":"up","change":1.1799410029498556,"applitude":1.627820939696644}
{"timestamp":"2022-04-20T23:46:00+07:00","time":1650473160000,"open":0.02744,"high":0.02761,"low":0.02738,"close":0.02756,"volume":6402412,"status":"up","change":0.43731778425656725,"applitude":0.8400292184075878}
{"timestamp":"2022-04-20T23:47:00+07:00","time":1650473220000,"open":0.02756,"high":0.02758,"low":0.02702,"close":0.02725,"volume":4821393,"status":"down","change":-1.124818577648771,"applitude":2.0725388601036325}
{"timestamp":"2022-04-20T23:48:00+07:00","time":1650473280000,"open":0.02723,"high":0.02745,"low":0.02721,"close":0.02742,"volume":1481202,"status":"up","change":0.697759823723831,"applitude":0.8820286659316323}
{"timestamp":"2022-04-20T23:49:00+07:00","time":1650473340000,"open":0.02743,"high":0.02761,"low":0.02743,"close":0.02754,"volume":3279101,"status":"up","change":0.40102078016769593,"applitude":0.6562158220925979}
{"timestamp":"2022-04-20T23:50:00+07:00","time":1650473400000,"open":0.02756,"high":0.0276,"low":0.02727,"close":0.02741,"volume":1949760,"status":"down","change":-0.5442670537010189,"applitude":1.2101210121012118}
{"timestamp":"2022-04-20T23:51:00+07:00","time":1650473460000,"open":0.02742,"high":0.02759,"low":0.02741,"close":0.02745,"volume":1606098,"status":"up","change":0.10940919037198679,"applitude":0.6566946369937965}
{"timestamp":"2022-04-20T23:52:00+07:00","time":1650473520000,"open":0.02743,"high":0.02754,"low":0.0273,"close":0.0273,"volume":2379633,"status":"down","change":-0.4739336492890929,"applitude":0.8791208791208687}
{"timestamp":"2022-04-20T23:53:00+07:00","time":1650473580000,"open":0.02735,"high":0.02744,"low":0.02726,"close":0.02729,"volume":1386392,"status":"down","change":-0.21937842778793795,"applitude":0.6603081438004388}
{"timestamp":"2022-04-20T23:54:00+07:00","time":1650473640000,"open":0.02732,"high":0.02734,"low":0.0268,"close":0.02692,"volume":6172336,"status":"down","change":-1.4641288433382176,"applitude":2.0149253731343237}
{"timestamp":"2022-04-20T23:55:00+07:00","time":1650473700000,"open":0.02694,"high":0.02727,"low":0.0268,"close":0.02717,"volume":2854560,"status":"up","change":0.8537490720118821,"applitude":1.7537313432835753}
{"timestamp":"2022-04-20T23:56:00+07:00","time":1650473760000,"open":0.02713,"high":0.02713,"low":0.02688,"close":0.02698,"volume":2247178,"status":"down","change":-0.5528934758569879,"applitude":0.9300595238095246}
{"timestamp":"2022-04-20T23:57:00+07:00","time":1650473820000,"open":0.02698,"high":0.02699,"low":0.0269,"close":0.02695,"volume":833054,"status":"down","change":-0.11119347664936537,"applitude":0.33457249070631895}
{"timestamp":"2022-04-20T23:58:00+07:00","time":1650473880000,"open":0.02694,"high":0.02697,"low":0.0266,"close":0.02676,"volume":3497790,"status":"down","change":-0.6681514476614685,"applitude":1.3909774436090312}
{"timestamp":"2022-04-20T23:59:00+07:00","time":1650473940000,"open":0.02677,"high":0.02712,"low":0.02677,"close":0.02682,"volume":2547928,"status":"up","change":0.18677624206201507,"applitude":1.3074336944340665}
{"timestamp":"2022-04-21T00:00:00+07:00","time":1650474000000,"open":0.02684,"high":0.0272,"low":0.02681,"close":0.02712,"volume":1590377,"status":"up","change":1.0432190760059576,"applitude":1.4546810891458335}
{"timestamp":"2022-04-21T00:01:00+07:00","time":1650474060000,"open":0.0271,"high":0.02721,"low":0.02706,"close":0.02718,"volume":1683746,"status":"up","change":0.29520295202952107,"applitude":0.5543237250554354}
{"timestamp":"2022-04-21T00:02:00+07:00","time":1650474120000,"open":0.02717,"high":0.0272,"low":0.02699,"close":0.02701,"volume":1565583,"status":"down","change":-0.5888847994111167,"applitude":0.7780659503519762}
{"timestamp":"2022-04-21T00:03:00+07:00","time":1650474180000,"open":0.02701,"high":0.02714,"low":0.0269,"close":0.02702,"volume":1347362,"status":"up","change":0.03702332469455606,"applitude":0.8921933085501882}
{"timestamp":"2022-04-21T00:04:00+07:00","time":1650474240000,"open":0.02702,"high":0.02704,"low":0.0268,"close":0.02693,"volume":1399603,"status":"down","change":-0.3330866025166536,"applitude":0.8955223880597039}
{"timestamp":"2022-04-21T00:05:00+07:00","time":1650474300000,"open":0.02693,"high":0.02696,"low":0.02687,"close":0.02689,"volume":599713,"status":"down","change":-0.14853323431117108,"applitude":0.334946036471901}
{"timestamp":"2022-04-21T00:06:00+07:00","time":1650474360000,"open":0.02688,"high":0.02699,"low":0.02678,"close":0.02699,"volume":1690929,"status":"up","change":0.4092261904761867,"applitude":0.7841672890216519}
{"timestamp":"2022-04-21T00:07:00+07:00","time":1650474420000,"open":0.02699,"high":0.02712,"low":0.02672,"close":0.02677,"volume":2718300,"status":"down","change":-0.8151167098925581,"applitude":1.497005988023943}
{"timestamp":"2022-04-21T00:08:00+07:00","time":1650474480000,"open":0.02674,"high":0.02682,"low":0.0265,"close":0.02677,"volume":3129919,"status":"up","change":0.11219147344801338,"applitude":1.207547169811324}
{"timestamp":"2022-04-21T00:09:00+07:00","time":1650474540000,"open":0.02677,"high":0.02689,"low":0.0264,"close":0.02655,"volume":4036648,"status":"down","change":-0.8218154650728352,"applitude":1.8560606060606093}
{"timestamp":"2022-04-21T00:10:00+07:00","time":1650474600000,"open":0.02654,"high":0.02665,"low":0.02644,"close":0.02653,"volume":2287140,"status":"down","change":-0.037678975131874876,"applitude":0.794251134644472}
{"timestamp":"2022-04-21T00:11:00+07:00","time":1650474660000,"open":0.02653,"high":0.02661,"low":0.02651,"close":0.02657,"volume":966965,"status":"up","change":0.15077271013945862,"applitude":0.37721614485101046}
{"timestamp":"2022-04-21T00:12:00+07:00","time":1650474720000,"open":0.0266,"high":0.02662,"low":0.0265,"close":0.02654,"volume":1035225,"status":"down","change":-0.22556390977442692,"applitude":0.452830188679253}
{"timestamp":"2022-04-21T00:13:00+07:00","time":1650474780000,"open":0.02652,"high":0.02655,"low":0.02641,"close":0.02649,"volume":1721852,"status":"down","change":-0.11312217194569675,"applitude":0.5301022340022765}
{"timestamp":"2022-04-21T00:14:00+07:00","time":1650474840000,"open":0.02648,"high":0.02659,"low":0.0263,"close":0.02634,"volume":3726331,"status":"down","change":-0.5287009063444156,"applitude":1.1026615969581695}
{"timestamp":"2022-04-21T00:15:00+07:00","time":1650474900000,"open":0.02632,"high":0.0265,"low":0.0263,"close":0.0263,"volume":1320001,"status":"down","change":-0.07598784194528566,"applitude":0.760456273764254}
{"timestamp":"2022-04-21T00:16:00+07:00","time":1650474960000,"open":0.02631,"high":0.02648,"low":0.02608,"close":0.02611,"volume":5810321,"status":"down","change":-0.7601672367920896,"applitude":1.5337423312883476}
{"timestamp":"2022-04-21T00:17:00+07:00","time":1650475020000,"open":0.02611,"high":0.02615,"low":0.02583,"close":0.02584,"volume":10974006,"status":"down","change":-1.0340865568747717,"applitude":1.2388695315524616}
{"timestamp":"2022-04-21T00:18:00+07:00","time":1650475080000,"open":0.02585,"high":0.02585,"low":0.02563,"close":0.02563,"volume":6219360,"status":"down","change":-0.8510638297872396,"applitude":0.858369098712452}
{"timestamp":"2022-04-21T00:19:00+07:00","time":1650475140000,"open":0.02566,"high":0.026,"low":0.02563,"close":0.02584,"volume":7024557,"status":"up","change":0.7014809041309416,"applitude":1.4436207569254733}
{"timestamp":"2022-04-21T00:20:00+07:00","time":1650475200000,"open":0.02584,"high":0.02596,"low":0.02577,"close":0.02586,"volume":4056024,"status":"up","change":0.07739938080496384,"applitude":0.7372914241365898}
{"timestamp":"2022-04-21T00:21:00+07:00","time":1650475260000,"open":0.02586,"high":0.02597,"low":0.02538,"close":0.02571,"volume":6420306,"status":"down","change":-0.5800464037123002,"applitude":2.3246650906225383}
{"timestamp":"2022-04-21T00:22:00+07:00","time":1650475320000,"open":0.0257,"high":0.02581,"low":0.02564,"close":0.02564,"volume":2092923,"status":"down","change":-0.23346303501945923,"applitude":0.6630265210608425}
{"timestamp":"2022-04-21T00:23:00+07:00","time":1650475380000,"open":0.02567,"high":0.02592,"low":0.02564,"close":0.02582,"volume":1720317,"status":"up","change":0.5843396961433612,"applitude":1.092043681747266}
{"timestamp":"2022-04-21T00:24:00+07:00","time":1650475440000,"open":0.02578,"high":0.02595,"low":0.02578,"close":0.02592,"volume":1414078,"status":"up","change":0.5430566330488664,"applitude":0.6594259115593484}
{"timestamp":"2022-04-21T00:25:00+07:00","time":1650475500000,"open":0.02595,"high":0.02595,"low":0.02582,"close":0.02582,"volume":1136265,"status":"down","change":-0.5009633911368079,"applitude":0.5034856700232442}
{"timestamp":"2022-04-21T00:26:00+07:00","time":1650475560000,"open":0.02582,"high":0.02585,"low":0.02572,"close":0.02573,"volume":793313,"status":"down","change":-0.34856700232377924,"applitude":0.5054432348367094}
{"timestamp":"2022-04-21T00:27:00+07:00","time":1650475620000,"open":0.02572,"high":0.02578,"low":0.02562,"close":0.0257,"volume":2251981,"status":"down","change":-0.0777604976671819,"applitude":0.6245120999219376}
{"timestamp":"2022-04-21T00:28:00+07:00","time":1650475680000,"open":0.0257,"high":0.02589,"low":0.02548,"close":0.02565,"volume":3817456,"status":"down","change":-0.19455252918288496,"applitude":1.6091051805337546}