{"progress":"selling","progress_cmt":"buying/selling","currentPrice":0.769,"currentChart":"normal","currentChart_cmt":"normal/up/down","highPrice":0,"lowPrice":0,"priceSL":0,"buyType":"du_dinh","buyType_cmt":"du_dinh","balance":{"USDT":7181.175369351307,"ONG":3901.1703511053315},"buyAmount":3901.1703511053315,"buyPrice":0.769,"totalUSDT":10181.175369351307}
{
  "TRADE_SIZE": 3000,
  "pairs": "ONG/USDT",
  "tpMin": 2,
  "tpMax": 90,
  "stopLoss": -2  
}
//chạy log 500 lần
//9 SL
//công thức chưa áp dụng tpMax -> nên có tình trạng bán sớm, và mua khi còn đang leo đỉnh
//đoạn này ko dò đáy
//trường hợp này có check volume lớn 