

issue #16
try case sell TP if ma7OrderStt = down
ma7OrderStt = up -> ignore
config.checkMa7SellDown = 1
apply sell type :tp_up_on_top
https://drive.google.com/file/d/12tHiYrEeRRzNtgtlHqnQSoxz0TcHpjxb/view?usp=sharing


- SL: 6
- TP: 8 (sellType: 'tp_up_not_fas' 7)
"totalUSDT":10582.071494151136




{"progress":"selling","progress_cmt":"buying/selling","currentPrice":0.7629,"currentChart":"normal","currentChart_cmt":"normal/up/down","affterBuyHighPrice":0.7629,"affterBuyLowPrice":0.7629,"currentPercentAffterBuy":43.83954154727783,"priceSL":0,"buyType":"du_dinh_co_node_giam","buyType_cmt":"du_dinh/du_dinh_volume/du_dinh_volume_applitude/do_day/ko_do_day/du_dinh_co_node_giam","sellType":"","sellType_cmt":"tp_up_on_top/tp_up_not_fast/tp_down/stop_loss","ma7":0.7614428571428571,"ma7OrderStt":"up","chartTop":0.834,"chartBottom":0.5732,"chartTopHigh":0.8209599999999999,"chartTopLow":0.80792,"chartBottomHigh":0.59928,"chartBottomLow":0.5862400000000001,"balance":{"USDT":7582.071494151136,"VCOIN":3932.3633503735746},"buyAmount":3932.3633503735746,"buyPrice":0.7629,"totalUSDT":10582.071494151136}
{
  "TRADE_SIZE": 3000,
  "pairs": "ONG/USDT",
  "tpMin": 2,
  "tpMax": 95,
  "stopLoss": -2,
  "saleOnTopAcc": 1,
  "checkMa7BuyUp": 1,
  "checkMa7SellDown": 1
}