+ fix buy trễ: 2022-01-22T09:29:00+07:00
->  mua sớm hơn 1 node, check thêm điều kiện applitude
https://drive.google.com/drive/folders/1l9LxvW6pjkyalKHk0MXRPLNCSeOtBWCG?usp=sharing 
- SL: 9
- TP: 14
"totalUSDT":10749.363449399289
-> log này ghi sai
-> thay bằng log 11b



+backlog:
fix case sell soon:
https://drive.google.com/drive/folders/1SSk-XuginNaMiV5xwlL6O4TeWexOhuT2?usp=sharing
timestamp: '2022-01-22T10:06:00+07:00',
-> Update: có thể ko cần fix vì case này 
currentPercentAffterBuy: 94.96402877697894,
sellType: 'tp_up_not_fast',






{"progress":"selling","progress_cmt":"buying/selling","currentPrice":0.7631,"currentChart":"normal","currentChart_cmt":"normal/up/down","affterBuyHighPrice":0.7631,"affterBuyLowPrice":0.7631,"currentPercentAffterBuy":43.83954154727783,"priceSL":0,"buyType":"du_dinh_co_node_giam","buyType_cmt":"du_dinh/du_dinh_volume/du_dinh_volume_applitude/do_day/ko_do_day/du_dinh_co_node_giam","sellType":"","sellType_cmt":"tp_up_on_top/tp_up_not_fast/tp_down/stop_loss","chartTop":0.834,"chartBottom":0.5732,"chartTopHigh":0.8209599999999999,"chartTopLow":0.80792,"chartBottomHigh":0.59928,"chartBottomLow":0.5862400000000001,"balance":{"USDT":7749.363449399289,"ONG":3931.3327217926876},"buyAmount":3931.3327217926876,"buyPrice":0.7631,"totalUSDT":10749.363449399289}
{
  "TRADE_SIZE": 3000,
  "pairs": "ONG/USDT",
  "tpMin": 2,
  "tpMax": 95,
  "stopLoss": -2,
  "saleOnTopAcc": 1
}