{"timestamp":"2022-01-22T06:53:00+07:00","time":1642809180000,"open":0.5737,"high":0.5737,"low":0.5737,"close":0.5737,"volume":20}
{"timestamp":"2022-01-22T06:54:00+07:00","time":1642809240000,"open":0.5737,"high":0.5737,"low":0.5737,"close":0.5737,"volume":0}
{"timestamp":"2022-01-22T06:55:00+07:00","time":1642809300000,"open":0.5763,"high":0.5763,"low":0.5763,"close":0.5763,"volume":17}
{"timestamp":"2022-01-22T06:56:00+07:00","time":1642809360000,"open":0.5734,"high":0.5734,"low":0.5732,"close":0.5732,"volume":912}
{"timestamp":"2022-01-22T06:57:00+07:00","time":1642809420000,"open":0.5732,"high":0.5732,"low":0.5732,"close":0.5732,"volume":0}
{"timestamp":"2022-01-22T06:58:00+07:00","time":1642809480000,"open":0.5761,"high":0.577,"low":0.5761,"close":0.577,"volume":9490}
{"timestamp":"2022-01-22T06:59:00+07:00","time":1642809540000,"open":0.5791,"high":0.5841,"low":0.5791,"close":0.5831,"volume":9499}
{"timestamp":"2022-01-22T07:00:00+07:00","time":1642809600000,"open":0.581,"high":0.6258,"low":0.5802,"close":0.5879,"volume":149284}
{"timestamp":"2022-01-22T07:01:00+07:00","time":1642809660000,"open":0.5883,"high":0.5926,"low":0.5803,"close":0.5856,"volume":39765}
{"timestamp":"2022-01-22T07:02:00+07:00","time":1642809720000,"open":0.5854,"high":0.5898,"low":0.5854,"close":0.5859,"volume":6931}
{"timestamp":"2022-01-22T07:03:00+07:00","time":1642809780000,"open":0.5867,"high":0.5867,"low":0.5776,"close":0.5866,"volume":17598}
{"timestamp":"2022-01-22T07:04:00+07:00","time":1642809840000,"open":0.5873,"high":0.6027,"low":0.5873,"close":0.6027,"volume":15608}
{"timestamp":"2022-01-22T07:05:00+07:00","time":1642809900000,"open":0.6003,"high":0.6018,"low":0.5932,"close":0.594,"volume":7967}
{"timestamp":"2022-01-22T07:06:00+07:00","time":1642809960000,"open":0.5936,"high":0.5943,"low":0.589,"close":0.5943,"volume":4362}
{"timestamp":"2022-01-22T07:07:00+07:00","time":1642810020000,"open":0.5912,"high":0.5912,"low":0.5849,"close":0.5849,"volume":2916}
{"timestamp":"2022-01-22T07:08:00+07:00","time":1642810080000,"open":0.5849,"high":0.588,"low":0.5846,"close":0.5849,"volume":1099}
{"timestamp":"2022-01-22T07:09:00+07:00","time":1642810140000,"open":0.5843,"high":0.5867,"low":0.5843,"close":0.5866,"volume":3229}
{"timestamp":"2022-01-22T07:10:00+07:00","time":1642810200000,"open":0.5834,"high":0.5944,"low":0.5811,"close":0.5914,"volume":9009}
{"timestamp":"2022-01-22T07:11:00+07:00","time":1642810260000,"open":0.5944,"high":0.6239,"low":0.5944,"close":0.6173,"volume":47014}
{"timestamp":"2022-01-22T07:12:00+07:00","time":1642810320000,"open":0.6167,"high":0.6222,"low":0.6059,"close":0.6065,"volume":11077}
{"timestamp":"2022-01-22T07:13:00+07:00","time":1642810380000,"open":0.6074,"high":0.615,"low":0.6015,"close":0.6116,"volume":10731}
{"timestamp":"2022-01-22T07:14:00+07:00","time":1642810440000,"open":0.611,"high":0.6287,"low":0.6103,"close":0.615,"volume":19701}
{"timestamp":"2022-01-22T07:15:00+07:00","time":1642810500000,"open":0.6166,"high":0.6238,"low":0.6088,"close":0.6192,"volume":35070}
{"timestamp":"2022-01-22T07:16:00+07:00","time":1642810560000,"open":0.6222,"high":0.6324,"low":0.6157,"close":0.6276,"volume":13474}
{"timestamp":"2022-01-22T07:17:00+07:00","time":1642810620000,"open":0.6284,"high":0.6359,"low":0.6229,"close":0.6359,"volume":29046}
{"timestamp":"2022-01-22T07:18:00+07:00","time":1642810680000,"open":0.6359,"high":0.6597,"low":0.6345,"close":0.6529,"volume":24498}
{"timestamp":"2022-01-22T07:19:00+07:00","time":1642810740000,"open":0.6516,"high":0.6645,"low":0.6506,"close":0.6621,"volume":19835}
{"timestamp":"2022-01-22T07:20:00+07:00","time":1642810800000,"open":0.6611,"high":0.6629,"low":0.6406,"close":0.649,"volume":27042}
{"timestamp":"2022-01-22T07:21:00+07:00","time":1642810860000,"open":0.645,"high":0.6558,"low":0.6379,"close":0.6558,"volume":17070}
{"timestamp":"2022-01-22T07:22:00+07:00","time":1642810920000,"open":0.6491,"high":0.6545,"low":0.6434,"close":0.6545,"volume":14837}
{"timestamp":"2022-01-22T07:23:00+07:00","time":1642810980000,"open":0.652,"high":0.6636,"low":0.6492,"close":0.6575,"volume":7242}
{"timestamp":"2022-01-22T07:24:00+07:00","time":1642811040000,"open":0.6589,"high":0.666,"low":0.6566,"close":0.666,"volume":5376}
{"timestamp":"2022-01-22T07:25:00+07:00","time":1642811100000,"open":0.6661,"high":0.6853,"low":0.6661,"close":0.6786,"volume":23772}
{"timestamp":"2022-01-22T07:26:00+07:00","time":1642811160000,"open":0.6799,"high":0.6811,"low":0.6657,"close":0.6722,"volume":32436}
{"timestamp":"2022-01-22T07:27:00+07:00","time":1642811220000,"open":0.6751,"high":0.6851,"low":0.6721,"close":0.6721,"volume":10619}
{"timestamp":"2022-01-22T07:28:00+07:00","time":1642811280000,"open":0.6738,"high":0.6829,"low":0.672,"close":0.6828,"volume":19152}
{"timestamp":"2022-01-22T07:29:00+07:00","time":1642811340000,"open":0.6829,"high":0.6877,"low":0.6784,"close":0.68,"volume":22166}
{"timestamp":"2022-01-22T07:30:00+07:00","time":1642811400000,"open":0.6804,"high":0.6852,"low":0.6778,"close":0.6806,"volume":23499}
{"timestamp":"2022-01-22T07:31:00+07:00","time":1642811460000,"open":0.681,"high":0.681,"low":0.6516,"close":0.661,"volume":66013}
{"timestamp":"2022-01-22T07:32:00+07:00","time":1642811520000,"open":0.6543,"high":0.6674,"low":0.6533,"close":0.6598,"volume":52531}
{"timestamp":"2022-01-22T07:33:00+07:00","time":1642811580000,"open":0.6596,"high":0.6701,"low":0.6567,"close":0.666,"volume":20921}
{"timestamp":"2022-01-22T07:34:00+07:00","time":1642811640000,"open":0.666,"high":0.6661,"low":0.6592,"close":0.6592,"volume":3891}
{"timestamp":"2022-01-22T07:35:00+07:00","time":1642811700000,"open":0.6592,"high":0.6632,"low":0.6566,"close":0.6605,"volume":7219}
{"timestamp":"2022-01-22T07:36:00+07:00","time":1642811760000,"open":0.6606,"high":0.6619,"low":0.654,"close":0.6587,"volume":11588}
{"timestamp":"2022-01-22T07:37:00+07:00","time":1642811820000,"open":0.6637,"high":0.6637,"low":0.6563,"close":0.6563,"volume":3356}
{"timestamp":"2022-01-22T07:38:00+07:00","time":1642811880000,"open":0.6586,"high":0.6597,"low":0.6539,"close":0.6543,"volume":3148}
{"timestamp":"2022-01-22T07:39:00+07:00","time":1642811940000,"open":0.6546,"high":0.6584,"low":0.6517,"close":0.6559,"volume":6713}
{"timestamp":"2022-01-22T07:40:00+07:00","time":1642812000000,"open":0.6552,"high":0.6552,"low":0.643,"close":0.6444,"volume":8972}
{"timestamp":"2022-01-22T07:41:00+07:00","time":1642812060000,"open":0.6444,"high":0.6528,"low":0.6433,"close":0.647,"volume":5962}
{"timestamp":"2022-01-22T07:42:00+07:00","time":1642812120000,"open":0.6475,"high":0.6487,"low":0.6447,"close":0.6475,"volume":2804}
{"timestamp":"2022-01-22T07:43:00+07:00","time":1642812180000,"open":0.6475,"high":0.6507,"low":0.6475,"close":0.6475,"volume":2493}
{"timestamp":"2022-01-22T07:44:00+07:00","time":1642812240000,"open":0.6478,"high":0.6491,"low":0.636,"close":0.6387,"volume":19605}
{"timestamp":"2022-01-22T07:45:00+07:00","time":1642812300000,"open":0.6389,"high":0.6389,"low":0.63,"close":0.6323,"volume":7633}
{"timestamp":"2022-01-22T07:46:00+07:00","time":1642812360000,"open":0.6308,"high":0.6355,"low":0.628,"close":0.6355,"volume":10827}
{"timestamp":"2022-01-22T07:47:00+07:00","time":1642812420000,"open":0.6346,"high":0.635,"low":0.6279,"close":0.6299,"volume":7895}
{"timestamp":"2022-01-22T07:48:00+07:00","time":1642812480000,"open":0.6299,"high":0.63,"low":0.6281,"close":0.63,"volume":1779}
{"timestamp":"2022-01-22T07:49:00+07:00","time":1642812540000,"open":0.6311,"high":0.634,"low":0.6311,"close":0.634,"volume":820}
{"timestamp":"2022-01-22T07:50:00+07:00","time":1642812600000,"open":0.6336,"high":0.6353,"low":0.6319,"close":0.6341,"volume":4038}
{"timestamp":"2022-01-22T07:51:00+07:00","time":1642812660000,"open":0.6341,"high":0.6427,"low":0.6335,"close":0.6413,"volume":8569}
{"timestamp":"2022-01-22T07:52:00+07:00","time":1642812720000,"open":0.6407,"high":0.6497,"low":0.6407,"close":0.6472,"volume":9950}
{"timestamp":"2022-01-22T07:53:00+07:00","time":1642812780000,"open":0.6423,"high":0.6442,"low":0.6319,"close":0.6388,"volume":8862}
{"timestamp":"2022-01-22T07:54:00+07:00","time":1642812840000,"open":0.6379,"high":0.6462,"low":0.6379,"close":0.6405,"volume":9469}
{"timestamp":"2022-01-22T07:55:00+07:00","time":1642812900000,"open":0.6406,"high":0.6477,"low":0.6406,"close":0.6434,"volume":4732}
{"timestamp":"2022-01-22T07:56:00+07:00","time":1642812960000,"open":0.6471,"high":0.6545,"low":0.6367,"close":0.6416,"volume":35136}
{"timestamp":"2022-01-22T07:57:00+07:00","time":1642813020000,"open":0.6396,"high":0.6396,"low":0.6347,"close":0.6354,"volume":2466}
{"timestamp":"2022-01-22T07:58:00+07:00","time":1642813080000,"open":0.6369,"high":0.639,"low":0.635,"close":0.6373,"volume":3631}
{"timestamp":"2022-01-22T07:59:00+07:00","time":1642813140000,"open":0.6393,"high":0.6413,"low":0.639,"close":0.6412,"volume":1760}
{"timestamp":"2022-01-22T08:00:00+07:00","time":1642813200000,"open":0.6406,"high":0.6435,"low":0.6401,"close":0.6435,"volume":8770}
{"timestamp":"2022-01-22T08:01:00+07:00","time":1642813260000,"open":0.646,"high":0.6499,"low":0.6458,"close":0.6495,"volume":12087}
{"timestamp":"2022-01-22T08:02:00+07:00","time":1642813320000,"open":0.6489,"high":0.6618,"low":0.6488,"close":0.6618,"volume":7699}
{"timestamp":"2022-01-22T08:03:00+07:00","time":1642813380000,"open":0.6609,"high":0.6628,"low":0.6547,"close":0.66,"volume":10780}
{"timestamp":"2022-01-22T08:04:00+07:00","time":1642813440000,"open":0.6601,"high":0.6602,"low":0.6522,"close":0.6558,"volume":4049}
{"timestamp":"2022-01-22T08:05:00+07:00","time":1642813500000,"open":0.6599,"high":0.6771,"low":0.6599,"close":0.67,"volume":6801}
{"timestamp":"2022-01-22T08:06:00+07:00","time":1642813560000,"open":0.676,"high":0.676,"low":0.6633,"close":0.6633,"volume":8867}
{"timestamp":"2022-01-22T08:07:00+07:00","time":1642813620000,"open":0.6699,"high":0.6724,"low":0.6668,"close":0.6688,"volume":14948}
{"timestamp":"2022-01-22T08:08:00+07:00","time":1642813680000,"open":0.6681,"high":0.6681,"low":0.6565,"close":0.6646,"volume":10362}
{"timestamp":"2022-01-22T08:09:00+07:00","time":1642813740000,"open":0.661,"high":0.6662,"low":0.659,"close":0.6637,"volume":7124}
{"timestamp":"2022-01-22T08:10:00+07:00","time":1642813800000,"open":0.6637,"high":0.6637,"low":0.6547,"close":0.6571,"volume":4900}
{"timestamp":"2022-01-22T08:11:00+07:00","time":1642813860000,"open":0.6548,"high":0.6585,"low":0.6525,"close":0.6585,"volume":4109}
{"timestamp":"2022-01-22T08:12:00+07:00","time":1642813920000,"open":0.6578,"high":0.6578,"low":0.6535,"close":0.6535,"volume":707}
{"timestamp":"2022-01-22T08:13:00+07:00","time":1642813980000,"open":0.6544,"high":0.6638,"low":0.6522,"close":0.6558,"volume":14791}
{"timestamp":"2022-01-22T08:14:00+07:00","time":1642814040000,"open":0.661,"high":0.661,"low":0.6588,"close":0.6588,"volume":149}
{"timestamp":"2022-01-22T08:15:00+07:00","time":1642814100000,"open":0.6581,"high":0.6581,"low":0.6549,"close":0.6549,"volume":2515}
{"timestamp":"2022-01-22T08:16:00+07:00","time":1642814160000,"open":0.6558,"high":0.6562,"low":0.655,"close":0.6557,"volume":1903}
{"timestamp":"2022-01-22T08:17:00+07:00","time":1642814220000,"open":0.6562,"high":0.6643,"low":0.6562,"close":0.66,"volume":10747}
{"timestamp":"2022-01-22T08:18:00+07:00","time":1642814280000,"open":0.6601,"high":0.6601,"low":0.6524,"close":0.657,"volume":10307}
{"timestamp":"2022-01-22T08:19:00+07:00","time":1642814340000,"open":0.657,"high":0.6588,"low":0.6552,"close":0.657,"volume":1393}
{"timestamp":"2022-01-22T08:20:00+07:00","time":1642814400000,"open":0.6572,"high":0.6572,"low":0.65,"close":0.654,"volume":2452}
{"timestamp":"2022-01-22T08:21:00+07:00","time":1642814460000,"open":0.654,"high":0.6575,"low":0.6531,"close":0.6549,"volume":4757}
{"timestamp":"2022-01-22T08:22:00+07:00","time":1642814520000,"open":0.6562,"high":0.6562,"low":0.6522,"close":0.6538,"volume":3599}
{"timestamp":"2022-01-22T08:23:00+07:00","time":1642814580000,"open":0.652,"high":0.6529,"low":0.6511,"close":0.6515,"volume":2003}
{"timestamp":"2022-01-22T08:24:00+07:00","time":1642814640000,"open":0.6515,"high":0.6523,"low":0.6458,"close":0.6494,"volume":3066}
{"timestamp":"2022-01-22T08:25:00+07:00","time":1642814700000,"open":0.6507,"high":0.6523,"low":0.6507,"close":0.652,"volume":1230}
{"timestamp":"2022-01-22T08:26:00+07:00","time":1642814760000,"open":0.6502,"high":0.655,"low":0.6499,"close":0.655,"volume":8054}
{"timestamp":"2022-01-22T08:27:00+07:00","time":1642814820000,"open":0.6539,"high":0.6568,"low":0.653,"close":0.6568,"volume":7158}
{"timestamp":"2022-01-22T08:28:00+07:00","time":1642814880000,"open":0.6561,"high":0.6573,"low":0.6534,"close":0.6534,"volume":2040}
{"timestamp":"2022-01-22T08:29:00+07:00","time":1642814940000,"open":0.6534,"high":0.6534,"low":0.6534,"close":0.6534,"volume":0}
{"timestamp":"2022-01-22T08:30:00+07:00","time":1642815000000,"open":0.6547,"high":0.6547,"low":0.6547,"close":0.6547,"volume":36}
{"timestamp":"2022-01-22T08:31:00+07:00","time":1642815060000,"open":0.652,"high":0.652,"low":0.6492,"close":0.6496,"volume":1557}
{"timestamp":"2022-01-22T08:32:00+07:00","time":1642815120000,"open":0.6482,"high":0.6539,"low":0.648,"close":0.6503,"volume":1797}
{"timestamp":"2022-01-22T08:33:00+07:00","time":1642815180000,"open":0.6493,"high":0.6515,"low":0.6493,"close":0.6513,"volume":1588}
{"timestamp":"2022-01-22T08:34:00+07:00","time":1642815240000,"open":0.648,"high":0.6483,"low":0.648,"close":0.6482,"volume":5265}
{"timestamp":"2022-01-22T08:35:00+07:00","time":1642815300000,"open":0.6494,"high":0.6495,"low":0.6494,"close":0.6495,"volume":349}
{"timestamp":"2022-01-22T08:36:00+07:00","time":1642815360000,"open":0.6487,"high":0.6494,"low":0.6484,"close":0.6494,"volume":1392}
{"timestamp":"2022-01-22T08:37:00+07:00","time":1642815420000,"open":0.6514,"high":0.6514,"low":0.6488,"close":0.6488,"volume":544}
{"timestamp":"2022-01-22T08:38:00+07:00","time":1642815480000,"open":0.6483,"high":0.6483,"low":0.6445,"close":0.6445,"volume":2419}
{"timestamp":"2022-01-22T08:39:00+07:00","time":1642815540000,"open":0.6435,"high":0.6468,"low":0.6413,"close":0.6413,"volume":2735}
{"timestamp":"2022-01-22T08:40:00+07:00","time":1642815600000,"open":0.6418,"high":0.6418,"low":0.6374,"close":0.6395,"volume":4801}
{"timestamp":"2022-01-22T08:41:00+07:00","time":1642815660000,"open":0.6395,"high":0.6444,"low":0.6395,"close":0.6418,"volume":1500}
{"timestamp":"2022-01-22T08:42:00+07:00","time":1642815720000,"open":0.6429,"high":0.6429,"low":0.6419,"close":0.6421,"volume":759}
{"timestamp":"2022-01-22T08:43:00+07:00","time":1642815780000,"open":0.6426,"high":0.6436,"low":0.6426,"close":0.6436,"volume":230}
{"timestamp":"2022-01-22T08:44:00+07:00","time":1642815840000,"open":0.6437,"high":0.6437,"low":0.6418,"close":0.6435,"volume":854}
{"timestamp":"2022-01-22T08:45:00+07:00","time":1642815900000,"open":0.6435,"high":0.6475,"low":0.6435,"close":0.6472,"volume":3329}
{"timestamp":"2022-01-22T08:46:00+07:00","time":1642815960000,"open":0.649,"high":0.649,"low":0.647,"close":0.6471,"volume":1942}
{"timestamp":"2022-01-22T08:47:00+07:00","time":1642816020000,"open":0.6467,"high":0.6467,"low":0.6414,"close":0.6416,"volume":3642}
{"timestamp":"2022-01-22T08:48:00+07:00","time":1642816080000,"open":0.6452,"high":0.6498,"low":0.6452,"close":0.6492,"volume":4427}
{"timestamp":"2022-01-22T08:49:00+07:00","time":1642816140000,"open":0.6507,"high":0.6556,"low":0.6507,"close":0.6538,"volume":2726}
{"timestamp":"2022-01-22T08:50:00+07:00","time":1642816200000,"open":0.6538,"high":0.6538,"low":0.6455,"close":0.6455,"volume":2070}
{"timestamp":"2022-01-22T08:51:00+07:00","time":1642816260000,"open":0.6455,"high":0.6475,"low":0.6455,"close":0.6475,"volume":635}
{"timestamp":"2022-01-22T08:52:00+07:00","time":1642816320000,"open":0.6484,"high":0.6484,"low":0.6462,"close":0.647,"volume":643}
{"timestamp":"2022-01-22T08:53:00+07:00","time":1642816380000,"open":0.6463,"high":0.6467,"low":0.6455,"close":0.6455,"volume":215}
{"timestamp":"2022-01-22T08:54:00+07:00","time":1642816440000,"open":0.6459,"high":0.6483,"low":0.6459,"close":0.6483,"volume":1986}
{"timestamp":"2022-01-22T08:55:00+07:00","time":1642816500000,"open":0.6482,"high":0.6482,"low":0.6482,"close":0.6482,"volume":94}
{"timestamp":"2022-01-22T08:56:00+07:00","time":1642816560000,"open":0.6461,"high":0.6461,"low":0.6461,"close":0.6461,"volume":85}
{"timestamp":"2022-01-22T08:57:00+07:00","time":1642816620000,"open":0.6463,"high":0.6463,"low":0.6435,"close":0.6435,"volume":1030}
{"timestamp":"2022-01-22T08:58:00+07:00","time":1642816680000,"open":0.6441,"high":0.6447,"low":0.6441,"close":0.6447,"volume":573}
{"timestamp":"2022-01-22T08:59:00+07:00","time":1642816740000,"open":0.6449,"high":0.6465,"low":0.6421,"close":0.6459,"volume":3145}
{"timestamp":"2022-01-22T09:00:00+07:00","time":1642816800000,"open":0.6459,"high":0.6459,"low":0.6459,"close":0.6459,"volume":0}
{"timestamp":"2022-01-22T09:01:00+07:00","time":1642816860000,"open":0.6454,"high":0.6459,"low":0.6454,"close":0.6459,"volume":167}
{"timestamp":"2022-01-22T09:02:00+07:00","time":1642816920000,"open":0.6459,"high":0.6482,"low":0.645,"close":0.6482,"volume":1171}
{"timestamp":"2022-01-22T09:03:00+07:00","time":1642816980000,"open":0.6499,"high":0.6552,"low":0.6492,"close":0.6492,"volume":3325}
{"timestamp":"2022-01-22T09:04:00+07:00","time":1642817040000,"open":0.6504,"high":0.6524,"low":0.6459,"close":0.6459,"volume":5558}
{"timestamp":"2022-01-22T09:05:00+07:00","time":1642817100000,"open":0.646,"high":0.646,"low":0.6437,"close":0.6437,"volume":762}
{"timestamp":"2022-01-22T09:06:00+07:00","time":1642817160000,"open":0.644,"high":0.6473,"low":0.644,"close":0.6473,"volume":979}
{"timestamp":"2022-01-22T09:07:00+07:00","time":1642817220000,"open":0.6462,"high":0.6469,"low":0.6462,"close":0.6464,"volume":896}
{"timestamp":"2022-01-22T09:08:00+07:00","time":1642817280000,"open":0.6469,"high":0.6469,"low":0.6457,"close":0.6457,"volume":559}
{"timestamp":"2022-01-22T09:09:00+07:00","time":1642817340000,"open":0.6458,"high":0.6458,"low":0.641,"close":0.641,"volume":4739}
{"timestamp":"2022-01-22T09:10:00+07:00","time":1642817400000,"open":0.6415,"high":0.6454,"low":0.6415,"close":0.6454,"volume":3861}
{"timestamp":"2022-01-22T09:11:00+07:00","time":1642817460000,"open":0.6454,"high":0.6454,"low":0.6454,"close":0.6454,"volume":0}
{"timestamp":"2022-01-22T09:12:00+07:00","time":1642817520000,"open":0.645,"high":0.6455,"low":0.6446,"close":0.6455,"volume":1334}
{"timestamp":"2022-01-22T09:13:00+07:00","time":1642817580000,"open":0.6455,"high":0.6458,"low":0.6424,"close":0.6424,"volume":2237}
{"timestamp":"2022-01-22T09:14:00+07:00","time":1642817640000,"open":0.6445,"high":0.6445,"low":0.6431,"close":0.6431,"volume":1261}
{"timestamp":"2022-01-22T09:15:00+07:00","time":1642817700000,"open":0.6445,"high":0.645,"low":0.6444,"close":0.6445,"volume":1519}
{"timestamp":"2022-01-22T09:16:00+07:00","time":1642817760000,"open":0.645,"high":0.646,"low":0.6442,"close":0.6442,"volume":2070}
{"timestamp":"2022-01-22T09:17:00+07:00","time":1642817820000,"open":0.6442,"high":0.6442,"low":0.6387,"close":0.6387,"volume":3257}
{"timestamp":"2022-01-22T09:18:00+07:00","time":1642817880000,"open":0.6388,"high":0.6388,"low":0.6345,"close":0.6346,"volume":4281}
{"timestamp":"2022-01-22T09:19:00+07:00","time":1642817940000,"open":0.6346,"high":0.6348,"low":0.6318,"close":0.633,"volume":5997}
{"timestamp":"2022-01-22T09:20:00+07:00","time":1642818000000,"open":0.6344,"high":0.6345,"low":0.6344,"close":0.6345,"volume":99}
{"timestamp":"2022-01-22T09:21:00+07:00","time":1642818060000,"open":0.6348,"high":0.636,"low":0.6335,"close":0.6359,"volume":617}
{"timestamp":"2022-01-22T09:22:00+07:00","time":1642818120000,"open":0.6353,"high":0.6361,"low":0.6344,"close":0.6344,"volume":2400}
{"timestamp":"2022-01-22T09:23:00+07:00","time":1642818180000,"open":0.6344,"high":0.6344,"low":0.6328,"close":0.6328,"volume":3443}
{"timestamp":"2022-01-22T09:24:00+07:00","time":1642818240000,"open":0.6328,"high":0.6336,"low":0.6312,"close":0.6324,"volume":3492}
{"timestamp":"2022-01-22T09:25:00+07:00","time":1642818300000,"open":0.6328,"high":0.6332,"low":0.632,"close":0.632,"volume":2850}
{"timestamp":"2022-01-22T09:26:00+07:00","time":1642818360000,"open":0.6329,"high":0.6334,"low":0.6329,"close":0.6334,"volume":64}
{"timestamp":"2022-01-22T09:27:00+07:00","time":1642818420000,"open":0.6341,"high":0.6353,"low":0.6338,"close":0.6341,"volume":1886}
{"timestamp":"2022-01-22T09:28:00+07:00","time":1642818480000,"open":0.6347,"high":0.6394,"low":0.6347,"close":0.6394,"volume":3742}
{"timestamp":"2022-01-22T09:29:00+07:00","time":1642818540000,"open":0.6399,"high":0.6479,"low":0.6399,"close":0.6417,"volume":17929}
{"timestamp":"2022-01-22T09:30:00+07:00","time":1642818600000,"open":0.6397,"high":0.6397,"low":0.6374,"close":0.6392,"volume":1252}
{"timestamp":"2022-01-22T09:31:00+07:00","time":1642818660000,"open":0.6344,"high":0.6367,"low":0.6344,"close":0.6348,"volume":2834}
{"timestamp":"2022-01-22T09:32:00+07:00","time":1642818720000,"open":0.6347,"high":0.6387,"low":0.6319,"close":0.6353,"volume":4811}
{"timestamp":"2022-01-22T09:33:00+07:00","time":1642818780000,"open":0.6344,"high":0.6344,"low":0.6329,"close":0.634,"volume":13101}
{"timestamp":"2022-01-22T09:34:00+07:00","time":1642818840000,"open":0.6367,"high":0.6368,"low":0.6355,"close":0.6355,"volume":1704}
{"timestamp":"2022-01-22T09:35:00+07:00","time":1642818900000,"open":0.6355,"high":0.6355,"low":0.6355,"close":0.6355,"volume":279}
{"timestamp":"2022-01-22T09:36:00+07:00","time":1642818960000,"open":0.6345,"high":0.6373,"low":0.6341,"close":0.6373,"volume":882}
{"timestamp":"2022-01-22T09:37:00+07:00","time":1642819020000,"open":0.6382,"high":0.6392,"low":0.6382,"close":0.6392,"volume":1391}
{"timestamp":"2022-01-22T09:38:00+07:00","time":1642819080000,"open":0.6383,"high":0.6383,"low":0.6383,"close":0.6383,"volume":22}
{"timestamp":"2022-01-22T09:39:00+07:00","time":1642819140000,"open":0.6372,"high":0.638,"low":0.6368,"close":0.6369,"volume":1723}
{"timestamp":"2022-01-22T09:40:00+07:00","time":1642819200000,"open":0.6369,"high":0.6369,"low":0.6369,"close":0.6369,"volume":0}
{"timestamp":"2022-01-22T09:41:00+07:00","time":1642819260000,"open":0.6369,"high":0.6369,"low":0.6369,"close":0.6369,"volume":0}
{"timestamp":"2022-01-22T09:42:00+07:00","time":1642819320000,"open":0.6379,"high":0.6379,"low":0.6375,"close":0.6375,"volume":1606}
{"timestamp":"2022-01-22T09:43:00+07:00","time":1642819380000,"open":0.6357,"high":0.6364,"low":0.6353,"close":0.636,"volume":1936}
{"timestamp":"2022-01-22T09:44:00+07:00","time":1642819440000,"open":0.6351,"high":0.6351,"low":0.6351,"close":0.6351,"volume":81}
{"timestamp":"2022-01-22T09:45:00+07:00","time":1642819500000,"open":0.635,"high":0.635,"low":0.6329,"close":0.6329,"volume":511}
{"timestamp":"2022-01-22T09:46:00+07:00","time":1642819560000,"open":0.6329,"high":0.6329,"low":0.6329,"close":0.6329,"volume":0}
{"timestamp":"2022-01-22T09:47:00+07:00","time":1642819620000,"open":0.6362,"high":0.6362,"low":0.6353,"close":0.6353,"volume":1174}
{"timestamp":"2022-01-22T09:48:00+07:00","time":1642819680000,"open":0.6352,"high":0.6352,"low":0.635,"close":0.635,"volume":144}
{"timestamp":"2022-01-22T09:49:00+07:00","time":1642819740000,"open":0.6349,"high":0.6349,"low":0.633,"close":0.633,"volume":1173}
{"timestamp":"2022-01-22T09:50:00+07:00","time":1642819800000,"open":0.633,"high":0.6364,"low":0.633,"close":0.6364,"volume":2004}
{"timestamp":"2022-01-22T09:51:00+07:00","time":1642819860000,"open":0.6389,"high":0.6426,"low":0.6384,"close":0.6388,"volume":5650}
{"timestamp":"2022-01-22T09:52:00+07:00","time":1642819920000,"open":0.6362,"high":0.6363,"low":0.6312,"close":0.6347,"volume":5494}
{"timestamp":"2022-01-22T09:53:00+07:00","time":1642819980000,"open":0.6355,"high":0.6355,"low":0.6355,"close":0.6355,"volume":377}
{"timestamp":"2022-01-22T09:54:00+07:00","time":1642820040000,"open":0.6362,"high":0.6386,"low":0.6362,"close":0.6382,"volume":2253}
{"timestamp":"2022-01-22T09:55:00+07:00","time":1642820100000,"open":0.6419,"high":0.6479,"low":0.6419,"close":0.6465,"volume":2547}
{"timestamp":"2022-01-22T09:56:00+07:00","time":1642820160000,"open":0.6451,"high":0.6451,"low":0.6388,"close":0.6421,"volume":4067}
{"timestamp":"2022-01-22T09:57:00+07:00","time":1642820220000,"open":0.6439,"high":0.6439,"low":0.641,"close":0.6415,"volume":1402}
{"timestamp":"2022-01-22T09:58:00+07:00","time":1642820280000,"open":0.6415,"high":0.6415,"low":0.6415,"close":0.6415,"volume":126}
{"timestamp":"2022-01-22T09:59:00+07:00","time":1642820340000,"open":0.641,"high":0.641,"low":0.641,"close":0.641,"volume":1010}
{"timestamp":"2022-01-22T10:00:00+07:00","time":1642820400000,"open":0.6422,"high":0.6435,"low":0.6422,"close":0.6435,"volume":396}
{"timestamp":"2022-01-22T10:01:00+07:00","time":1642820460000,"open":0.6437,"high":0.6437,"low":0.6437,"close":0.6437,"volume":31}
{"timestamp":"2022-01-22T10:02:00+07:00","time":1642820520000,"open":0.6437,"high":0.6437,"low":0.6429,"close":0.6437,"volume":3369}
{"timestamp":"2022-01-22T10:03:00+07:00","time":1642820580000,"open":0.6448,"high":0.6458,"low":0.6441,"close":0.6458,"volume":1253}
{"timestamp":"2022-01-22T10:04:00+07:00","time":1642820640000,"open":0.6479,"high":0.6534,"low":0.6479,"close":0.6534,"volume":8808}
{"timestamp":"2022-01-22T10:05:00+07:00","time":1642820700000,"open":0.6541,"high":0.6584,"low":0.6524,"close":0.6556,"volume":7591}
{"timestamp":"2022-01-22T10:06:00+07:00","time":1642820760000,"open":0.6549,"high":0.6553,"low":0.6519,"close":0.6549,"volume":2262}
{"timestamp":"2022-01-22T10:07:00+07:00","time":1642820820000,"open":0.6549,"high":0.6569,"low":0.6549,"close":0.6569,"volume":1580}
{"timestamp":"2022-01-22T10:08:00+07:00","time":1642820880000,"open":0.657,"high":0.6659,"low":0.657,"close":0.6626,"volume":8523}
{"timestamp":"2022-01-22T10:09:00+07:00","time":1642820940000,"open":0.6626,"high":0.6646,"low":0.662,"close":0.6628,"volume":413}
{"timestamp":"2022-01-22T10:10:00+07:00","time":1642821000000,"open":0.6645,"high":0.6645,"low":0.6578,"close":0.6605,"volume":4797}
{"timestamp":"2022-01-22T10:11:00+07:00","time":1642821060000,"open":0.6602,"high":0.661,"low":0.6588,"close":0.6606,"volume":543}
{"timestamp":"2022-01-22T10:12:00+07:00","time":1642821120000,"open":0.6637,"high":0.6646,"low":0.6547,"close":0.6597,"volume":10882}
{"timestamp":"2022-01-22T10:13:00+07:00","time":1642821180000,"open":0.6564,"high":0.6587,"low":0.6561,"close":0.6561,"volume":653}
{"timestamp":"2022-01-22T10:14:00+07:00","time":1642821240000,"open":0.6566,"high":0.6582,"low":0.6562,"close":0.6582,"volume":176}
{"timestamp":"2022-01-22T10:15:00+07:00","time":1642821300000,"open":0.6561,"high":0.6661,"low":0.6561,"close":0.6575,"volume":13725}
{"timestamp":"2022-01-22T10:16:00+07:00","time":1642821360000,"open":0.661,"high":0.6622,"low":0.6535,"close":0.6583,"volume":7609}
{"timestamp":"2022-01-22T10:17:00+07:00","time":1642821420000,"open":0.6556,"high":0.6556,"low":0.6483,"close":0.6522,"volume":14539}
{"timestamp":"2022-01-22T10:18:00+07:00","time":1642821480000,"open":0.6519,"high":0.6573,"low":0.6518,"close":0.6537,"volume":1522}
{"timestamp":"2022-01-22T10:19:00+07:00","time":1642821540000,"open":0.6583,"high":0.6584,"low":0.6573,"close":0.6582,"volume":2171}
{"timestamp":"2022-01-22T10:20:00+07:00","time":1642821600000,"open":0.6588,"high":0.659,"low":0.6547,"close":0.6547,"volume":833}
{"timestamp":"2022-01-22T10:21:00+07:00","time":1642821660000,"open":0.6547,"high":0.6547,"low":0.6526,"close":0.6534,"volume":1782}
{"timestamp":"2022-01-22T10:22:00+07:00","time":1642821720000,"open":0.6534,"high":0.6534,"low":0.6531,"close":0.6531,"volume":688}
{"timestamp":"2022-01-22T10:23:00+07:00","time":1642821780000,"open":0.6518,"high":0.6518,"low":0.6493,"close":0.6517,"volume":284}
{"timestamp":"2022-01-22T10:24:00+07:00","time":1642821840000,"open":0.652,"high":0.652,"low":0.652,"close":0.652,"volume":146}
{"timestamp":"2022-01-22T10:25:00+07:00","time":1642821900000,"open":0.6547,"high":0.6567,"low":0.6547,"close":0.6567,"volume":2867}
{"timestamp":"2022-01-22T10:26:00+07:00","time":1642821960000,"open":0.6567,"high":0.6567,"low":0.6567,"close":0.6567,"volume":0}
{"timestamp":"2022-01-22T10:27:00+07:00","time":1642822020000,"open":0.659,"high":0.6618,"low":0.659,"close":0.6594,"volume":775}
{"timestamp":"2022-01-22T10:28:00+07:00","time":1642822080000,"open":0.6595,"high":0.6595,"low":0.6578,"close":0.6578,"volume":795}
{"timestamp":"2022-01-22T10:29:00+07:00","time":1642822140000,"open":0.6594,"high":0.6594,"low":0.657,"close":0.6572,"volume":1511}
{"timestamp":"2022-01-22T10:30:00+07:00","time":1642822200000,"open":0.6573,"high":0.6599,"low":0.6573,"close":0.6587,"volume":2449}
{"timestamp":"2022-01-22T10:31:00+07:00","time":1642822260000,"open":0.6587,"high":0.6587,"low":0.6558,"close":0.656,"volume":2938}
{"timestamp":"2022-01-22T10:32:00+07:00","time":1642822320000,"open":0.6559,"high":0.6559,"low":0.6525,"close":0.6525,"volume":1075}
{"timestamp":"2022-01-22T10:33:00+07:00","time":1642822380000,"open":0.6548,"high":0.6548,"low":0.6548,"close":0.6548,"volume":24}
{"timestamp":"2022-01-22T10:34:00+07:00","time":1642822440000,"open":0.6548,"high":0.6548,"low":0.6548,"close":0.6548,"volume":0}
{"timestamp":"2022-01-22T10:35:00+07:00","time":1642822500000,"open":0.6525,"high":0.6525,"low":0.6525,"close":0.6525,"volume":201}
{"timestamp":"2022-01-22T10:36:00+07:00","time":1642822560000,"open":0.6531,"high":0.6531,"low":0.6531,"close":0.6531,"volume":361}
{"timestamp":"2022-01-22T10:37:00+07:00","time":1642822620000,"open":0.6526,"high":0.6526,"low":0.6526,"close":0.6526,"volume":153}
{"timestamp":"2022-01-22T10:38:00+07:00","time":1642822680000,"open":0.6537,"high":0.6537,"low":0.6512,"close":0.6536,"volume":3893}
{"timestamp":"2022-01-22T10:39:00+07:00","time":1642822740000,"open":0.6521,"high":0.6522,"low":0.6521,"close":0.6522,"volume":321}
{"timestamp":"2022-01-22T10:40:00+07:00","time":1642822800000,"open":0.6516,"high":0.658,"low":0.6516,"close":0.6531,"volume":5691}
{"timestamp":"2022-01-22T10:41:00+07:00","time":1642822860000,"open":0.65,"high":0.6574,"low":0.6456,"close":0.651,"volume":2418}
{"timestamp":"2022-01-22T10:42:00+07:00","time":1642822920000,"open":0.6514,"high":0.6514,"low":0.6514,"close":0.6514,"volume":94}
{"timestamp":"2022-01-22T10:43:00+07:00","time":1642822980000,"open":0.6496,"high":0.6496,"low":0.6467,"close":0.6484,"volume":981}
{"timestamp":"2022-01-22T10:44:00+07:00","time":1642823040000,"open":0.6469,"high":0.649,"low":0.6468,"close":0.649,"volume":353}
{"timestamp":"2022-01-22T10:45:00+07:00","time":1642823100000,"open":0.6465,"high":0.6465,"low":0.6445,"close":0.6445,"volume":2798}
{"timestamp":"2022-01-22T10:46:00+07:00","time":1642823160000,"open":0.6474,"high":0.6474,"low":0.6429,"close":0.646,"volume":7733}
{"timestamp":"2022-01-22T10:47:00+07:00","time":1642823220000,"open":0.6482,"high":0.6482,"low":0.648,"close":0.6481,"volume":1943}
{"timestamp":"2022-01-22T10:48:00+07:00","time":1642823280000,"open":0.6477,"high":0.6484,"low":0.6477,"close":0.648,"volume":4774}
{"timestamp":"2022-01-22T10:49:00+07:00","time":1642823340000,"open":0.648,"high":0.6494,"low":0.648,"close":0.6494,"volume":1588}
{"timestamp":"2022-01-22T10:50:00+07:00","time":1642823400000,"open":0.647,"high":0.647,"low":0.6443,"close":0.6443,"volume":402}
{"timestamp":"2022-01-22T10:51:00+07:00","time":1642823460000,"open":0.6434,"high":0.6448,"low":0.6424,"close":0.6424,"volume":2348}
{"timestamp":"2022-01-22T10:52:00+07:00","time":1642823520000,"open":0.644,"high":0.644,"low":0.6421,"close":0.6421,"volume":370}
{"timestamp":"2022-01-22T10:53:00+07:00","time":1642823580000,"open":0.6421,"high":0.6422,"low":0.6345,"close":0.6416,"volume":4229}
{"timestamp":"2022-01-22T10:54:00+07:00","time":1642823640000,"open":0.6437,"high":0.6438,"low":0.6437,"close":0.6438,"volume":368}
{"timestamp":"2022-01-22T10:55:00+07:00","time":1642823700000,"open":0.645,"high":0.645,"low":0.645,"close":0.645,"volume":370}
{"timestamp":"2022-01-22T10:56:00+07:00","time":1642823760000,"open":0.6454,"high":0.6466,"low":0.6454,"close":0.6466,"volume":859}
{"timestamp":"2022-01-22T10:57:00+07:00","time":1642823820000,"open":0.6466,"high":0.6466,"low":0.6466,"close":0.6466,"volume":0}
{"timestamp":"2022-01-22T10:58:00+07:00","time":1642823880000,"open":0.6468,"high":0.6489,"low":0.6468,"close":0.6469,"volume":1529}
{"timestamp":"2022-01-22T10:59:00+07:00","time":1642823940000,"open":0.6487,"high":0.6487,"low":0.6487,"close":0.6487,"volume":55}
{"timestamp":"2022-01-22T11:00:00+07:00","time":1642824000000,"open":0.6491,"high":0.6491,"low":0.6454,"close":0.6454,"volume":1655}
{"timestamp":"2022-01-22T11:01:00+07:00","time":1642824060000,"open":0.6465,"high":0.647,"low":0.6465,"close":0.6465,"volume":446}
{"timestamp":"2022-01-22T11:02:00+07:00","time":1642824120000,"open":0.6462,"high":0.6462,"low":0.6462,"close":0.6462,"volume":182}
{"timestamp":"2022-01-22T11:03:00+07:00","time":1642824180000,"open":0.6474,"high":0.6474,"low":0.6474,"close":0.6474,"volume":25}
{"timestamp":"2022-01-22T11:04:00+07:00","time":1642824240000,"open":0.6483,"high":0.6485,"low":0.6483,"close":0.6485,"volume":691}
{"timestamp":"2022-01-22T11:05:00+07:00","time":1642824300000,"open":0.6485,"high":0.6489,"low":0.6479,"close":0.6479,"volume":2037}
{"timestamp":"2022-01-22T11:06:00+07:00","time":1642824360000,"open":0.6489,"high":0.6499,"low":0.6489,"close":0.6492,"volume":1172}
{"timestamp":"2022-01-22T11:07:00+07:00","time":1642824420000,"open":0.6498,"high":0.6498,"low":0.6492,"close":0.6493,"volume":2975}
{"timestamp":"2022-01-22T11:08:00+07:00","time":1642824480000,"open":0.6499,"high":0.6578,"low":0.6499,"close":0.6578,"volume":5015}
{"timestamp":"2022-01-22T11:09:00+07:00","time":1642824540000,"open":0.6576,"high":0.6577,"low":0.6522,"close":0.656,"volume":11467}
{"timestamp":"2022-01-22T11:10:00+07:00","time":1642824600000,"open":0.654,"high":0.6546,"low":0.6539,"close":0.6539,"volume":266}
{"timestamp":"2022-01-22T11:11:00+07:00","time":1642824660000,"open":0.6551,"high":0.6552,"low":0.6524,"close":0.6546,"volume":784}
{"timestamp":"2022-01-22T11:12:00+07:00","time":1642824720000,"open":0.6518,"high":0.6537,"low":0.6495,"close":0.6505,"volume":2300}
{"timestamp":"2022-01-22T11:13:00+07:00","time":1642824780000,"open":0.653,"high":0.6591,"low":0.653,"close":0.6546,"volume":14291}
{"timestamp":"2022-01-22T11:14:00+07:00","time":1642824840000,"open":0.6546,"high":0.6551,"low":0.6532,"close":0.6538,"volume":1466}
{"timestamp":"2022-01-22T11:15:00+07:00","time":1642824900000,"open":0.6538,"high":0.6538,"low":0.6538,"close":0.6538,"volume":279}
{"timestamp":"2022-01-22T11:16:00+07:00","time":1642824960000,"open":0.6524,"high":0.6524,"low":0.652,"close":0.652,"volume":141}
{"timestamp":"2022-01-22T11:17:00+07:00","time":1642825020000,"open":0.6552,"high":0.6553,"low":0.6552,"close":0.6553,"volume":1159}
{"timestamp":"2022-01-22T11:18:00+07:00","time":1642825080000,"open":0.6552,"high":0.6552,"low":0.6529,"close":0.6545,"volume":1384}
{"timestamp":"2022-01-22T11:19:00+07:00","time":1642825140000,"open":0.6545,"high":0.6545,"low":0.6545,"close":0.6545,"volume":0}
{"timestamp":"2022-01-22T11:20:00+07:00","time":1642825200000,"open":0.6527,"high":0.6541,"low":0.6442,"close":0.6539,"volume":37363}
{"timestamp":"2022-01-22T11:21:00+07:00","time":1642825260000,"open":0.6512,"high":0.6551,"low":0.6482,"close":0.6507,"volume":26682}
{"timestamp":"2022-01-22T11:22:00+07:00","time":1642825320000,"open":0.6505,"high":0.6505,"low":0.6492,"close":0.6492,"volume":370}
{"timestamp":"2022-01-22T11:23:00+07:00","time":1642825380000,"open":0.6519,"high":0.6525,"low":0.6517,"close":0.6517,"volume":2487}
{"timestamp":"2022-01-22T11:24:00+07:00","time":1642825440000,"open":0.6541,"high":0.6541,"low":0.6527,"close":0.6527,"volume":388}
{"timestamp":"2022-01-22T11:25:00+07:00","time":1642825500000,"open":0.6552,"high":0.657,"low":0.6545,"close":0.657,"volume":3745}
{"timestamp":"2022-01-22T11:26:00+07:00","time":1642825560000,"open":0.657,"high":0.6574,"low":0.657,"close":0.657,"volume":15697}
{"timestamp":"2022-01-22T11:27:00+07:00","time":1642825620000,"open":0.657,"high":0.659,"low":0.6556,"close":0.6571,"volume":10708}
{"timestamp":"2022-01-22T11:28:00+07:00","time":1642825680000,"open":0.6572,"high":0.6573,"low":0.6546,"close":0.6547,"volume":4009}
{"timestamp":"2022-01-22T11:29:00+07:00","time":1642825740000,"open":0.6558,"high":0.659,"low":0.6546,"close":0.6568,"volume":11555}
{"timestamp":"2022-01-22T11:30:00+07:00","time":1642825800000,"open":0.6563,"high":0.6564,"low":0.6546,"close":0.6546,"volume":524}
{"timestamp":"2022-01-22T11:31:00+07:00","time":1642825860000,"open":0.6554,"high":0.6567,"low":0.6548,"close":0.6565,"volume":2332}
{"timestamp":"2022-01-22T11:32:00+07:00","time":1642825920000,"open":0.6572,"high":0.6575,"low":0.6572,"close":0.6573,"volume":1218}
{"timestamp":"2022-01-22T11:33:00+07:00","time":1642825980000,"open":0.6571,"high":0.6755,"low":0.6571,"close":0.6595,"volume":54200}
{"timestamp":"2022-01-22T11:34:00+07:00","time":1642826040000,"open":0.6615,"high":0.672,"low":0.6592,"close":0.6592,"volume":31602}
{"timestamp":"2022-01-22T11:35:00+07:00","time":1642826100000,"open":0.6604,"high":0.6611,"low":0.6549,"close":0.6585,"volume":15814}
{"timestamp":"2022-01-22T11:36:00+07:00","time":1642826160000,"open":0.6596,"high":0.6599,"low":0.6578,"close":0.6598,"volume":4760}
{"timestamp":"2022-01-22T11:37:00+07:00","time":1642826220000,"open":0.6591,"high":0.6616,"low":0.6587,"close":0.6609,"volume":4289}
{"timestamp":"2022-01-22T11:38:00+07:00","time":1642826280000,"open":0.6609,"high":0.6638,"low":0.6592,"close":0.6632,"volume":8065}
{"timestamp":"2022-01-22T11:39:00+07:00","time":1642826340000,"open":0.6628,"high":0.668,"low":0.6628,"close":0.6635,"volume":24615}
{"timestamp":"2022-01-22T11:40:00+07:00","time":1642826400000,"open":0.6676,"high":0.6792,"low":0.6656,"close":0.6747,"volume":29431}
{"timestamp":"2022-01-22T11:41:00+07:00","time":1642826460000,"open":0.6747,"high":0.6765,"low":0.6706,"close":0.6722,"volume":11562}
{"timestamp":"2022-01-22T11:42:00+07:00","time":1642826520000,"open":0.6722,"high":0.6756,"low":0.67,"close":0.6752,"volume":17657}
{"timestamp":"2022-01-22T11:43:00+07:00","time":1642826580000,"open":0.6749,"high":0.6752,"low":0.6719,"close":0.674,"volume":1818}
{"timestamp":"2022-01-22T11:44:00+07:00","time":1642826640000,"open":0.6724,"high":0.6743,"low":0.6675,"close":0.6704,"volume":9309}
{"timestamp":"2022-01-22T11:45:00+07:00","time":1642826700000,"open":0.6716,"high":0.6722,"low":0.6651,"close":0.6704,"volume":5815}
{"timestamp":"2022-01-22T11:46:00+07:00","time":1642826760000,"open":0.6693,"high":0.6699,"low":0.6644,"close":0.669,"volume":2518}
{"timestamp":"2022-01-22T11:47:00+07:00","time":1642826820000,"open":0.6676,"high":0.6721,"low":0.6676,"close":0.6693,"volume":3290}
{"timestamp":"2022-01-22T11:48:00+07:00","time":1642826880000,"open":0.6692,"high":0.6692,"low":0.6669,"close":0.6669,"volume":2601}
{"timestamp":"2022-01-22T11:49:00+07:00","time":1642826940000,"open":0.6669,"high":0.6714,"low":0.6669,"close":0.6712,"volume":3890}
{"timestamp":"2022-01-22T11:50:00+07:00","time":1642827000000,"open":0.6716,"high":0.6781,"low":0.6716,"close":0.6781,"volume":4660}
{"timestamp":"2022-01-22T11:51:00+07:00","time":1642827060000,"open":0.6781,"high":0.6794,"low":0.6737,"close":0.6737,"volume":4408}
{"timestamp":"2022-01-22T11:52:00+07:00","time":1642827120000,"open":0.6775,"high":0.6864,"low":0.6764,"close":0.6825,"volume":18043}
{"timestamp":"2022-01-22T11:53:00+07:00","time":1642827180000,"open":0.6855,"high":0.6885,"low":0.6813,"close":0.684,"volume":22920}
{"timestamp":"2022-01-22T11:54:00+07:00","time":1642827240000,"open":0.6842,"high":0.6879,"low":0.6823,"close":0.6843,"volume":13762}
{"timestamp":"2022-01-22T11:55:00+07:00","time":1642827300000,"open":0.6868,"high":0.7,"low":0.6837,"close":0.6927,"volume":76165}
{"timestamp":"2022-01-22T11:56:00+07:00","time":1642827360000,"open":0.6908,"high":0.7003,"low":0.6849,"close":0.6849,"volume":31772}
{"timestamp":"2022-01-22T11:57:00+07:00","time":1642827420000,"open":0.6875,"high":0.7022,"low":0.6866,"close":0.6901,"volume":31331}
{"timestamp":"2022-01-22T11:58:00+07:00","time":1642827480000,"open":0.6907,"high":0.6923,"low":0.6871,"close":0.6871,"volume":9047}
{"timestamp":"2022-01-22T11:59:00+07:00","time":1642827540000,"open":0.69,"high":0.69,"low":0.678,"close":0.6803,"volume":31897}
{"timestamp":"2022-01-22T12:00:00+07:00","time":1642827600000,"open":0.682,"high":0.69,"low":0.6805,"close":0.6864,"volume":14665}
{"timestamp":"2022-01-22T12:01:00+07:00","time":1642827660000,"open":0.6866,"high":0.69,"low":0.6863,"close":0.69,"volume":12765}
{"timestamp":"2022-01-22T12:02:00+07:00","time":1642827720000,"open":0.69,"high":0.69,"low":0.6871,"close":0.6885,"volume":17169}
{"timestamp":"2022-01-22T12:03:00+07:00","time":1642827780000,"open":0.6885,"high":0.6954,"low":0.6873,"close":0.694,"volume":25228}
{"timestamp":"2022-01-22T12:04:00+07:00","time":1642827840000,"open":0.6953,"high":0.6998,"low":0.6893,"close":0.6975,"volume":33020}
{"timestamp":"2022-01-22T12:05:00+07:00","time":1642827900000,"open":0.6975,"high":0.71,"low":0.697,"close":0.7,"volume":78241}
{"timestamp":"2022-01-22T12:06:00+07:00","time":1642827960000,"open":0.7012,"high":0.7055,"low":0.6995,"close":0.7055,"volume":58658}
{"timestamp":"2022-01-22T12:07:00+07:00","time":1642828020000,"open":0.7055,"high":0.7281,"low":0.702,"close":0.728,"volume":133354}
{"timestamp":"2022-01-22T12:08:00+07:00","time":1642828080000,"open":0.7223,"high":0.7259,"low":0.7109,"close":0.7199,"volume":60191}
{"timestamp":"2022-01-22T12:09:00+07:00","time":1642828140000,"open":0.7199,"high":0.7424,"low":0.7186,"close":0.7352,"volume":112275}
{"timestamp":"2022-01-22T12:10:00+07:00","time":1642828200000,"open":0.7356,"high":0.7495,"low":0.7329,"close":0.7329,"volume":162401}
{"timestamp":"2022-01-22T12:11:00+07:00","time":1642828260000,"open":0.7319,"high":0.7385,"low":0.724,"close":0.7385,"volume":55423}
{"timestamp":"2022-01-22T12:12:00+07:00","time":1642828320000,"open":0.7381,"high":0.75,"low":0.7316,"close":0.7422,"volume":52059}
{"timestamp":"2022-01-22T12:13:00+07:00","time":1642828380000,"open":0.7459,"high":0.76,"low":0.7389,"close":0.751,"volume":51976}
{"timestamp":"2022-01-22T12:14:00+07:00","time":1642828440000,"open":0.7549,"high":0.76,"low":0.7464,"close":0.755,"volume":69939}
{"timestamp":"2022-01-22T12:15:00+07:00","time":1642828500000,"open":0.7544,"high":0.78,"low":0.7488,"close":0.7737,"volume":109989}
{"timestamp":"2022-01-22T12:16:00+07:00","time":1642828560000,"open":0.773,"high":0.78,"low":0.7652,"close":0.769,"volume":107273}
{"timestamp":"2022-01-22T12:17:00+07:00","time":1642828620000,"open":0.7709,"high":0.799,"low":0.7691,"close":0.7899,"volume":206553}
{"timestamp":"2022-01-22T12:18:00+07:00","time":1642828680000,"open":0.7904,"high":0.7965,"low":0.776,"close":0.795,"volume":90469}
{"timestamp":"2022-01-22T12:19:00+07:00","time":1642828740000,"open":0.795,"high":0.8255,"low":0.7894,"close":0.7977,"volume":233311}
{"timestamp":"2022-01-22T12:20:00+07:00","time":1642828800000,"open":0.799,"high":0.7992,"low":0.7475,"close":0.7682,"volume":278671}
{"timestamp":"2022-01-22T12:21:00+07:00","time":1642828860000,"open":0.7691,"high":0.7864,"low":0.7618,"close":0.7743,"volume":163185}
{"timestamp":"2022-01-22T12:22:00+07:00","time":1642828920000,"open":0.7743,"high":0.789,"low":0.7729,"close":0.7862,"volume":114272}
{"timestamp":"2022-01-22T12:23:00+07:00","time":1642828980000,"open":0.7862,"high":0.7892,"low":0.7707,"close":0.7892,"volume":56063}
{"timestamp":"2022-01-22T12:24:00+07:00","time":1642829040000,"open":0.7895,"high":0.83,"low":0.7863,"close":0.8082,"volume":211037}
{"timestamp":"2022-01-22T12:25:00+07:00","time":1642829100000,"open":0.8081,"high":0.83,"low":0.8001,"close":0.801,"volume":134151}
{"timestamp":"2022-01-22T12:26:00+07:00","time":1642829160000,"open":0.8014,"high":0.828,"low":0.7954,"close":0.8099,"volume":159150}
{"timestamp":"2022-01-22T12:27:00+07:00","time":1642829220000,"open":0.8076,"high":0.834,"low":0.8006,"close":0.8234,"volume":211975}
{"timestamp":"2022-01-22T12:28:00+07:00","time":1642829280000,"open":0.8231,"high":0.829,"low":0.8,"close":0.8001,"volume":267633}
{"timestamp":"2022-01-22T12:29:00+07:00","time":1642829340000,"open":0.8037,"high":0.8169,"low":0.8001,"close":0.8098,"volume":66697}
{"timestamp":"2022-01-22T12:30:00+07:00","time":1642829400000,"open":0.8102,"high":0.8106,"low":0.7967,"close":0.8007,"volume":95966}
{"timestamp":"2022-01-22T12:31:00+07:00","time":1642829460000,"open":0.8026,"high":0.805,"low":0.7956,"close":0.7989,"volume":119671}
{"timestamp":"2022-01-22T12:32:00+07:00","time":1642829520000,"open":0.7999,"high":0.8131,"low":0.7999,"close":0.8058,"volume":60179}
{"timestamp":"2022-01-22T12:33:00+07:00","time":1642829580000,"open":0.8089,"high":0.813,"low":0.8024,"close":0.8068,"volume":119823}
{"timestamp":"2022-01-22T12:34:00+07:00","time":1642829640000,"open":0.8061,"high":0.8114,"low":0.8029,"close":0.8094,"volume":26070}
{"timestamp":"2022-01-22T12:35:00+07:00","time":1642829700000,"open":0.8059,"high":0.8114,"low":0.803,"close":0.8071,"volume":16541}
{"timestamp":"2022-01-22T12:36:00+07:00","time":1642829760000,"open":0.8069,"high":0.807,"low":0.7779,"close":0.7808,"volume":161816}
{"timestamp":"2022-01-22T12:37:00+07:00","time":1642829820000,"open":0.7783,"high":0.7863,"low":0.76,"close":0.7863,"volume":259503}
{"timestamp":"2022-01-22T12:38:00+07:00","time":1642829880000,"open":0.7863,"high":0.799,"low":0.7799,"close":0.7853,"volume":137282}
{"timestamp":"2022-01-22T12:39:00+07:00","time":1642829940000,"open":0.7853,"high":0.7859,"low":0.7615,"close":0.7646,"volume":72372}
{"timestamp":"2022-01-22T12:40:00+07:00","time":1642830000000,"open":0.7647,"high":0.7702,"low":0.7497,"close":0.7569,"volume":82865}
{"timestamp":"2022-01-22T12:41:00+07:00","time":1642830060000,"open":0.7561,"high":0.764,"low":0.7468,"close":0.7592,"volume":131047}
{"timestamp":"2022-01-22T12:42:00+07:00","time":1642830120000,"open":0.7596,"high":0.7835,"low":0.7588,"close":0.78,"volume":93374}
{"timestamp":"2022-01-22T12:43:00+07:00","time":1642830180000,"open":0.7808,"high":0.7808,"low":0.7721,"close":0.7768,"volume":60479}
{"timestamp":"2022-01-22T12:44:00+07:00","time":1642830240000,"open":0.7766,"high":0.7913,"low":0.7748,"close":0.7805,"volume":54927}
{"timestamp":"2022-01-22T12:45:00+07:00","time":1642830300000,"open":0.7805,"high":0.7805,"low":0.7664,"close":0.7712,"volume":34711}
{"timestamp":"2022-01-22T12:46:00+07:00","time":1642830360000,"open":0.7712,"high":0.7712,"low":0.7525,"close":0.7605,"volume":39966}
{"timestamp":"2022-01-22T12:47:00+07:00","time":1642830420000,"open":0.76,"high":0.7692,"low":0.7587,"close":0.7642,"volume":9171}
{"timestamp":"2022-01-22T12:48:00+07:00","time":1642830480000,"open":0.7648,"high":0.7704,"low":0.7633,"close":0.7652,"volume":10251}
{"timestamp":"2022-01-22T12:49:00+07:00","time":1642830540000,"open":0.7652,"high":0.7652,"low":0.755,"close":0.7552,"volume":15034}
{"timestamp":"2022-01-22T12:50:00+07:00","time":1642830600000,"open":0.7518,"high":0.762,"low":0.7512,"close":0.7617,"volume":23844}
{"timestamp":"2022-01-22T12:51:00+07:00","time":1642830660000,"open":0.7597,"high":0.7768,"low":0.7596,"close":0.769,"volume":50995}
{"timestamp":"2022-01-22T12:52:00+07:00","time":1642830720000,"open":0.7618,"high":0.775,"low":0.7616,"close":0.7667,"volume":28890}
{"timestamp":"2022-01-22T12:53:00+07:00","time":1642830780000,"open":0.7667,"high":0.7695,"low":0.7513,"close":0.7594,"volume":30087}
{"timestamp":"2022-01-22T12:54:00+07:00","time":1642830840000,"open":0.7594,"high":0.7643,"low":0.755,"close":0.7573,"volume":11433}
{"timestamp":"2022-01-22T12:55:00+07:00","time":1642830900000,"open":0.7629,"high":0.7669,"low":0.7464,"close":0.7481,"volume":33242}
{"timestamp":"2022-01-22T12:56:00+07:00","time":1642830960000,"open":0.7474,"high":0.7655,"low":0.7464,"close":0.7618,"volume":35258}
{"timestamp":"2022-01-22T12:57:00+07:00","time":1642831020000,"open":0.7635,"high":0.765,"low":0.759,"close":0.7618,"volume":9434}
{"timestamp":"2022-01-22T12:58:00+07:00","time":1642831080000,"open":0.7603,"high":0.7649,"low":0.7538,"close":0.7592,"volume":4823}
{"timestamp":"2022-01-22T12:59:00+07:00","time":1642831140000,"open":0.7592,"high":0.769,"low":0.7592,"close":0.7646,"volume":27935}
{"timestamp":"2022-01-22T13:00:00+07:00","time":1642831200000,"open":0.7626,"high":0.7689,"low":0.7593,"close":0.7642,"volume":8576}
{"timestamp":"2022-01-22T13:01:00+07:00","time":1642831260000,"open":0.7662,"high":0.7781,"low":0.7644,"close":0.7694,"volume":73109}
{"timestamp":"2022-01-22T13:02:00+07:00","time":1642831320000,"open":0.773,"high":0.7838,"low":0.769,"close":0.7794,"volume":53142}
{"timestamp":"2022-01-22T13:03:00+07:00","time":1642831380000,"open":0.7795,"high":0.7858,"low":0.769,"close":0.77,"volume":86088}
{"timestamp":"2022-01-22T13:04:00+07:00","time":1642831440000,"open":0.7714,"high":0.7746,"low":0.7692,"close":0.7733,"volume":11984}
{"timestamp":"2022-01-22T13:05:00+07:00","time":1642831500000,"open":0.774,"high":0.7775,"low":0.77,"close":0.7759,"volume":23592}
{"timestamp":"2022-01-22T13:06:00+07:00","time":1642831560000,"open":0.7759,"high":0.7847,"low":0.7758,"close":0.7825,"volume":23332}
{"timestamp":"2022-01-22T13:07:00+07:00","time":1642831620000,"open":0.7833,"high":0.7857,"low":0.7764,"close":0.7795,"volume":69549}
{"timestamp":"2022-01-22T13:08:00+07:00","time":1642831680000,"open":0.7817,"high":0.785,"low":0.7796,"close":0.7846,"volume":48803}
{"timestamp":"2022-01-22T13:09:00+07:00","time":1642831740000,"open":0.7826,"high":0.7843,"low":0.7767,"close":0.78,"volume":11992}
{"timestamp":"2022-01-22T13:10:00+07:00","time":1642831800000,"open":0.777,"high":0.7782,"low":0.771,"close":0.777,"volume":29602}
{"timestamp":"2022-01-22T13:11:00+07:00","time":1642831860000,"open":0.7748,"high":0.779,"low":0.7716,"close":0.7722,"volume":8572}
{"timestamp":"2022-01-22T13:12:00+07:00","time":1642831920000,"open":0.7702,"high":0.7745,"low":0.7702,"close":0.7734,"volume":5191}
{"timestamp":"2022-01-22T13:13:00+07:00","time":1642831980000,"open":0.7727,"high":0.7731,"low":0.76,"close":0.7618,"volume":24629}
{"timestamp":"2022-01-22T13:14:00+07:00","time":1642832040000,"open":0.7612,"high":0.7612,"low":0.7556,"close":0.7556,"volume":28986}
{"timestamp":"2022-01-22T13:15:00+07:00","time":1642832100000,"open":0.755,"high":0.77,"low":0.7542,"close":0.7639,"volume":23801}
{"timestamp":"2022-01-22T13:16:00+07:00","time":1642832160000,"open":0.7638,"high":0.7691,"low":0.7588,"close":0.7598,"volume":21954}
{"timestamp":"2022-01-22T13:17:00+07:00","time":1642832220000,"open":0.759,"high":0.7681,"low":0.759,"close":0.7658,"volume":17132}
{"timestamp":"2022-01-22T13:18:00+07:00","time":1642832280000,"open":0.7658,"high":0.7692,"low":0.7606,"close":0.7606,"volume":29641}
{"timestamp":"2022-01-22T13:19:00+07:00","time":1642832340000,"open":0.7611,"high":0.763,"low":0.7571,"close":0.7627,"volume":13824}
{"timestamp":"2022-01-22T13:20:00+07:00","time":1642832400000,"open":0.7625,"high":0.7644,"low":0.7606,"close":0.764,"volume":4000}
{"timestamp":"2022-01-22T13:21:00+07:00","time":1642832460000,"open":0.7641,"high":0.7648,"low":0.7565,"close":0.7566,"volume":14896}
{"timestamp":"2022-01-22T13:22:00+07:00","time":1642832520000,"open":0.7565,"high":0.7582,"low":0.748,"close":0.7512,"volume":43706}
{"timestamp":"2022-01-22T13:23:00+07:00","time":1642832580000,"open":0.7568,"high":0.7568,"low":0.7519,"close":0.7523,"volume":2505}
{"timestamp":"2022-01-22T13:24:00+07:00","time":1642832640000,"open":0.7523,"high":0.7545,"low":0.75,"close":0.75,"volume":9855}
{"timestamp":"2022-01-22T13:25:00+07:00","time":1642832700000,"open":0.75,"high":0.7562,"low":0.7482,"close":0.7562,"volume":24975}
{"timestamp":"2022-01-22T13:26:00+07:00","time":1642832760000,"open":0.7561,"high":0.7561,"low":0.7496,"close":0.7523,"volume":5597}
{"timestamp":"2022-01-22T13:27:00+07:00","time":1642832820000,"open":0.7523,"high":0.7523,"low":0.7413,"close":0.7441,"volume":23281}
{"timestamp":"2022-01-22T13:28:00+07:00","time":1642832880000,"open":0.7442,"high":0.7499,"low":0.705,"close":0.72,"volume":229576}
{"timestamp":"2022-01-22T13:29:00+07:00","time":1642832940000,"open":0.7221,"high":0.7225,"low":0.7139,"close":0.7174,"volume":69641}
{"timestamp":"2022-01-22T13:30:00+07:00","time":1642833000000,"open":0.7181,"high":0.7221,"low":0.7135,"close":0.7163,"volume":32969}
{"timestamp":"2022-01-22T13:31:00+07:00","time":1642833060000,"open":0.716,"high":0.72,"low":0.7112,"close":0.7143,"volume":41571}
{"timestamp":"2022-01-22T13:32:00+07:00","time":1642833120000,"open":0.7189,"high":0.7275,"low":0.7189,"close":0.7274,"volume":40987}
{"timestamp":"2022-01-22T13:33:00+07:00","time":1642833180000,"open":0.7274,"high":0.7289,"low":0.7157,"close":0.7191,"volume":36091}
{"timestamp":"2022-01-22T13:34:00+07:00","time":1642833240000,"open":0.7164,"high":0.7249,"low":0.7149,"close":0.7189,"volume":27197}
{"timestamp":"2022-01-22T13:35:00+07:00","time":1642833300000,"open":0.7205,"high":0.7221,"low":0.7157,"close":0.7157,"volume":15860}
{"timestamp":"2022-01-22T13:36:00+07:00","time":1642833360000,"open":0.716,"high":0.716,"low":0.6965,"close":0.701,"volume":107227}
{"timestamp":"2022-01-22T13:37:00+07:00","time":1642833420000,"open":0.701,"high":0.711,"low":0.6936,"close":0.6936,"volume":53083}
{"timestamp":"2022-01-22T13:38:00+07:00","time":1642833480000,"open":0.6952,"high":0.7,"low":0.6914,"close":0.6929,"volume":50405}
{"timestamp":"2022-01-22T13:39:00+07:00","time":1642833540000,"open":0.6988,"high":0.7048,"low":0.6936,"close":0.704,"volume":31537}
{"timestamp":"2022-01-22T13:40:00+07:00","time":1642833600000,"open":0.7027,"high":0.7069,"low":0.6988,"close":0.7001,"volume":33905}
{"timestamp":"2022-01-22T13:41:00+07:00","time":1642833660000,"open":0.7023,"high":0.7199,"low":0.7003,"close":0.7099,"volume":45748}
{"timestamp":"2022-01-22T13:42:00+07:00","time":1642833720000,"open":0.7097,"high":0.7227,"low":0.7061,"close":0.7061,"volume":53435}
{"timestamp":"2022-01-22T13:43:00+07:00","time":1642833780000,"open":0.7086,"high":0.72,"low":0.7061,"close":0.7149,"volume":59217}
{"timestamp":"2022-01-22T13:44:00+07:00","time":1642833840000,"open":0.7122,"high":0.7199,"low":0.7086,"close":0.7103,"volume":19282}
{"timestamp":"2022-01-22T13:45:00+07:00","time":1642833900000,"open":0.7129,"high":0.72,"low":0.7103,"close":0.7196,"volume":15218}
{"timestamp":"2022-01-22T13:46:00+07:00","time":1642833960000,"open":0.72,"high":0.7237,"low":0.7165,"close":0.7237,"volume":64159}
{"timestamp":"2022-01-22T13:47:00+07:00","time":1642834020000,"open":0.7237,"high":0.7356,"low":0.7215,"close":0.7349,"volume":43311}
{"timestamp":"2022-01-22T13:48:00+07:00","time":1642834080000,"open":0.7323,"high":0.7348,"low":0.73,"close":0.7326,"volume":52085}
{"timestamp":"2022-01-22T13:49:00+07:00","time":1642834140000,"open":0.7328,"high":0.7356,"low":0.73,"close":0.7309,"volume":40705}
{"timestamp":"2022-01-22T13:50:00+07:00","time":1642834200000,"open":0.7333,"high":0.7356,"low":0.7257,"close":0.7273,"volume":21633}
{"timestamp":"2022-01-22T13:51:00+07:00","time":1642834260000,"open":0.7276,"high":0.735,"low":0.7275,"close":0.735,"volume":28475}
{"timestamp":"2022-01-22T13:52:00+07:00","time":1642834320000,"open":0.7356,"high":0.7537,"low":0.7356,"close":0.7479,"volume":94057}
{"timestamp":"2022-01-22T13:53:00+07:00","time":1642834380000,"open":0.7449,"high":0.7581,"low":0.7403,"close":0.7552,"volume":28487}
{"timestamp":"2022-01-22T13:54:00+07:00","time":1642834440000,"open":0.7551,"high":0.7673,"low":0.75,"close":0.7551,"volume":72287}
{"timestamp":"2022-01-22T13:55:00+07:00","time":1642834500000,"open":0.7531,"high":0.766,"low":0.7531,"close":0.7609,"volume":46979}
{"timestamp":"2022-01-22T13:56:00+07:00","time":1642834560000,"open":0.7572,"high":0.77,"low":0.7571,"close":0.77,"volume":74562}
{"timestamp":"2022-01-22T13:57:00+07:00","time":1642834620000,"open":0.77,"high":0.773,"low":0.76,"close":0.7601,"volume":89363}
{"timestamp":"2022-01-22T13:58:00+07:00","time":1642834680000,"open":0.7604,"high":0.773,"low":0.7534,"close":0.7669,"volume":56330}
{"timestamp":"2022-01-22T13:59:00+07:00","time":1642834740000,"open":0.7659,"high":0.7662,"low":0.757,"close":0.7571,"volume":23971}
{"timestamp":"2022-01-22T14:00:00+07:00","time":1642834800000,"open":0.7583,"high":0.7585,"low":0.7426,"close":0.7427,"volume":49582}
{"timestamp":"2022-01-22T14:01:00+07:00","time":1642834860000,"open":0.7427,"high":0.75,"low":0.7414,"close":0.75,"volume":26487}
{"timestamp":"2022-01-22T14:02:00+07:00","time":1642834920000,"open":0.7486,"high":0.7581,"low":0.7433,"close":0.7581,"volume":11307}
{"timestamp":"2022-01-22T14:03:00+07:00","time":1642834980000,"open":0.7561,"high":0.759,"low":0.747,"close":0.7475,"volume":15556}
{"timestamp":"2022-01-22T14:04:00+07:00","time":1642835040000,"open":0.7471,"high":0.7555,"low":0.745,"close":0.745,"volume":22237}
{"timestamp":"2022-01-22T14:05:00+07:00","time":1642835100000,"open":0.7451,"high":0.7462,"low":0.7318,"close":0.7356,"volume":34648}
{"timestamp":"2022-01-22T14:06:00+07:00","time":1642835160000,"open":0.7327,"high":0.7388,"low":0.7301,"close":0.7388,"volume":28668}
{"timestamp":"2022-01-22T14:07:00+07:00","time":1642835220000,"open":0.7358,"high":0.7375,"low":0.7339,"close":0.735,"volume":14026}
{"timestamp":"2022-01-22T14:08:00+07:00","time":1642835280000,"open":0.7354,"high":0.7387,"low":0.734,"close":0.736,"volume":13635}
{"timestamp":"2022-01-22T14:09:00+07:00","time":1642835340000,"open":0.7383,"high":0.7491,"low":0.7383,"close":0.7477,"volume":18262}
{"timestamp":"2022-01-22T14:10:00+07:00","time":1642835400000,"open":0.7479,"high":0.759,"low":0.7437,"close":0.7563,"volume":26751}
{"timestamp":"2022-01-22T14:11:00+07:00","time":1642835460000,"open":0.7551,"high":0.7637,"low":0.7522,"close":0.7601,"volume":129027}
{"timestamp":"2022-01-22T14:12:00+07:00","time":1642835520000,"open":0.7627,"high":0.7627,"low":0.76,"close":0.76,"volume":158964}
{"timestamp":"2022-01-22T14:13:00+07:00","time":1642835580000,"open":0.76,"high":0.7665,"low":0.76,"close":0.7665,"volume":77162}
{"timestamp":"2022-01-22T14:14:00+07:00","time":1642835640000,"open":0.7655,"high":0.7686,"low":0.7614,"close":0.7616,"volume":16359}
{"timestamp":"2022-01-22T14:15:00+07:00","time":1642835700000,"open":0.762,"high":0.7645,"low":0.76,"close":0.76,"volume":66491}
{"timestamp":"2022-01-22T14:16:00+07:00","time":1642835760000,"open":0.7617,"high":0.765,"low":0.76,"close":0.763,"volume":112371}
{"timestamp":"2022-01-22T14:17:00+07:00","time":1642835820000,"open":0.7669,"high":0.7777,"low":0.7647,"close":0.777,"volume":68243}
{"timestamp":"2022-01-22T14:18:00+07:00","time":1642835880000,"open":0.777,"high":0.7798,"low":0.7721,"close":0.775,"volume":32982}
{"timestamp":"2022-01-22T14:19:00+07:00","time":1642835940000,"open":0.775,"high":0.778,"low":0.7717,"close":0.7722,"volume":44383}
{"timestamp":"2022-01-22T14:20:00+07:00","time":1642836000000,"open":0.7757,"high":0.7773,"low":0.755,"close":0.7577,"volume":46042}
{"timestamp":"2022-01-22T14:21:00+07:00","time":1642836060000,"open":0.7567,"high":0.7656,"low":0.7458,"close":0.7461,"volume":53004}
{"timestamp":"2022-01-22T14:22:00+07:00","time":1642836120000,"open":0.7492,"high":0.7574,"low":0.7463,"close":0.7562,"volume":13919}
{"timestamp":"2022-01-22T14:23:00+07:00","time":1642836180000,"open":0.7556,"high":0.7618,"low":0.7519,"close":0.7617,"volume":4650}
{"timestamp":"2022-01-22T14:24:00+07:00","time":1642836240000,"open":0.7592,"high":0.7618,"low":0.7564,"close":0.7588,"volume":9082}
{"timestamp":"2022-01-22T14:25:00+07:00","time":1642836300000,"open":0.7607,"high":0.7729,"low":0.7566,"close":0.7616,"volume":59636}
{"timestamp":"2022-01-22T14:26:00+07:00","time":1642836360000,"open":0.7638,"high":0.7869,"low":0.7615,"close":0.7813,"volume":85502}
{"timestamp":"2022-01-22T14:27:00+07:00","time":1642836420000,"open":0.7824,"high":0.795,"low":0.78,"close":0.7833,"volume":75030}
{"timestamp":"2022-01-22T14:28:00+07:00","time":1642836480000,"open":0.78,"high":0.786,"low":0.7762,"close":0.7837,"volume":27647}
{"timestamp":"2022-01-22T14:29:00+07:00","time":1642836540000,"open":0.783,"high":0.7932,"low":0.7726,"close":0.7743,"volume":49646}
{"timestamp":"2022-01-22T14:30:00+07:00","time":1642836600000,"open":0.7782,"high":0.7965,"low":0.7781,"close":0.795,"volume":46328}
{"timestamp":"2022-01-22T14:31:00+07:00","time":1642836660000,"open":0.7896,"high":0.795,"low":0.765,"close":0.7754,"volume":89125}
{"timestamp":"2022-01-22T14:32:00+07:00","time":1642836720000,"open":0.776,"high":0.7928,"low":0.765,"close":0.769,"volume":65231}
{"timestamp":"2022-01-22T14:33:00+07:00","time":1642836780000,"open":0.7683,"high":0.7758,"low":0.7671,"close":0.7716,"volume":18608}
{"timestamp":"2022-01-22T14:34:00+07:00","time":1642836840000,"open":0.7685,"high":0.777,"low":0.7522,"close":0.7563,"volume":54777}
{"timestamp":"2022-01-22T14:35:00+07:00","time":1642836900000,"open":0.7574,"high":0.762,"low":0.7563,"close":0.7585,"volume":29740}
{"timestamp":"2022-01-22T14:36:00+07:00","time":1642836960000,"open":0.7589,"high":0.7657,"low":0.7547,"close":0.7631,"volume":31781}
{"timestamp":"2022-01-22T14:37:00+07:00","time":1642837020000,"open":0.7648,"high":0.7745,"low":0.7641,"close":0.7732,"volume":23150}
{"timestamp":"2022-01-22T14:38:00+07:00","time":1642837080000,"open":0.7731,"high":0.7798,"low":0.7731,"close":0.7782,"volume":23628}
{"timestamp":"2022-01-22T14:39:00+07:00","time":1642837140000,"open":0.7759,"high":0.7777,"low":0.7701,"close":0.7734,"volume":11688}
{"timestamp":"2022-01-22T14:40:00+07:00","time":1642837200000,"open":0.771,"high":0.7778,"low":0.7692,"close":0.7778,"volume":14160}
{"timestamp":"2022-01-22T14:41:00+07:00","time":1642837260000,"open":0.7722,"high":0.777,"low":0.7607,"close":0.7625,"volume":20010}
{"timestamp":"2022-01-22T14:42:00+07:00","time":1642837320000,"open":0.7625,"high":0.773,"low":0.7592,"close":0.7692,"volume":31610}
{"timestamp":"2022-01-22T14:43:00+07:00","time":1642837380000,"open":0.7703,"high":0.7757,"low":0.7661,"close":0.7725,"volume":17583}
{"timestamp":"2022-01-22T14:44:00+07:00","time":1642837440000,"open":0.7725,"high":0.7735,"low":0.7644,"close":0.7704,"volume":16853}
{"timestamp":"2022-01-22T14:45:00+07:00","time":1642837500000,"open":0.7702,"high":0.7719,"low":0.7595,"close":0.771,"volume":42833}
{"timestamp":"2022-01-22T14:46:00+07:00","time":1642837560000,"open":0.7692,"high":0.7754,"low":0.7691,"close":0.7699,"volume":10534}
{"timestamp":"2022-01-22T14:47:00+07:00","time":1642837620000,"open":0.7691,"high":0.7699,"low":0.7633,"close":0.7678,"volume":22091}
{"timestamp":"2022-01-22T14:48:00+07:00","time":1642837680000,"open":0.7689,"high":0.7725,"low":0.7643,"close":0.7673,"volume":17236}
{"timestamp":"2022-01-22T14:49:00+07:00","time":1642837740000,"open":0.7642,"high":0.7662,"low":0.7615,"close":0.7615,"volume":6722}
{"timestamp":"2022-01-22T14:50:00+07:00","time":1642837800000,"open":0.7626,"high":0.7628,"low":0.7494,"close":0.759,"volume":56240}
{"timestamp":"2022-01-22T14:51:00+07:00","time":1642837860000,"open":0.7598,"high":0.7667,"low":0.7595,"close":0.762,"volume":5016}
{"timestamp":"2022-01-22T14:52:00+07:00","time":1642837920000,"open":0.762,"high":0.7654,"low":0.76,"close":0.7628,"volume":14561}
{"timestamp":"2022-01-22T14:53:00+07:00","time":1642837980000,"open":0.7641,"high":0.7694,"low":0.761,"close":0.7694,"volume":11031}
{"timestamp":"2022-01-22T14:54:00+07:00","time":1642838040000,"open":0.766,"high":0.7675,"low":0.7518,"close":0.7523,"volume":14427}
{"timestamp":"2022-01-22T14:55:00+07:00","time":1642838100000,"open":0.7527,"high":0.7617,"low":0.7524,"close":0.7617,"volume":4511}
{"timestamp":"2022-01-22T14:56:00+07:00","time":1642838160000,"open":0.76,"high":0.7657,"low":0.7575,"close":0.7629,"volume":8523}
{"timestamp":"2022-01-22T14:57:00+07:00","time":1642838220000,"open":0.7628,"high":0.7699,"low":0.7628,"close":0.7699,"volume":11341}
{"timestamp":"2022-01-22T14:58:00+07:00","time":1642838280000,"open":0.7681,"high":0.77,"low":0.76,"close":0.7627,"volume":16896}
{"timestamp":"2022-01-22T14:59:00+07:00","time":1642838340000,"open":0.7626,"high":0.7674,"low":0.7611,"close":0.7658,"volume":15404}
{"timestamp":"2022-01-22T15:00:00+07:00","time":1642838400000,"open":0.7659,"high":0.7659,"low":0.7614,"close":0.7614,"volume":7618}
{"timestamp":"2022-01-22T15:01:00+07:00","time":1642838460000,"open":0.763,"high":0.769,"low":0.7605,"close":0.769,"volume":17391}
{"timestamp":"2022-01-22T15:02:00+07:00","time":1642838520000,"open":0.769,"high":0.7723,"low":0.7612,"close":0.7681,"volume":61368}
{"timestamp":"2022-01-22T15:03:00+07:00","time":1642838580000,"open":0.7683,"high":0.78,"low":0.7661,"close":0.7702,"volume":124811}
{"timestamp":"2022-01-22T15:04:00+07:00","time":1642838640000,"open":0.7747,"high":0.7749,"low":0.7673,"close":0.7683,"volume":43026}
{"timestamp":"2022-01-22T15:05:00+07:00","time":1642838700000,"open":0.7681,"high":0.7716,"low":0.7659,"close":0.7694,"volume":19000}
{"timestamp":"2022-01-22T15:06:00+07:00","time":1642838760000,"open":0.769,"high":0.779,"low":0.7641,"close":0.7721,"volume":38457}
{"timestamp":"2022-01-22T15:07:00+07:00","time":1642838820000,"open":0.7684,"high":0.7853,"low":0.7668,"close":0.7741,"volume":34584}
{"timestamp":"2022-01-22T15:08:00+07:00","time":1642838880000,"open":0.7749,"high":0.7779,"low":0.7727,"close":0.7727,"volume":12085}
{"timestamp":"2022-01-22T15:09:00+07:00","time":1642838940000,"open":0.7727,"high":0.7777,"low":0.7718,"close":0.7747,"volume":19729}
{"timestamp":"2022-01-22T15:10:00+07:00","time":1642839000000,"open":0.775,"high":0.7824,"low":0.7723,"close":0.7804,"volume":26062}
{"timestamp":"2022-01-22T15:11:00+07:00","time":1642839060000,"open":0.7803,"high":0.7823,"low":0.7736,"close":0.7773,"volume":18611}
{"timestamp":"2022-01-22T15:12:00+07:00","time":1642839120000,"open":0.7775,"high":0.7784,"low":0.7736,"close":0.7742,"volume":10186}
{"timestamp":"2022-01-22T15:13:00+07:00","time":1642839180000,"open":0.7763,"high":0.785,"low":0.7736,"close":0.775,"volume":28280}
{"timestamp":"2022-01-22T15:14:00+07:00","time":1642839240000,"open":0.7759,"high":0.7832,"low":0.7732,"close":0.774,"volume":11194}
{"timestamp":"2022-01-22T15:15:00+07:00","time":1642839300000,"open":0.7775,"high":0.784,"low":0.774,"close":0.7771,"volume":21583}
{"timestamp":"2022-01-22T15:16:00+07:00","time":1642839360000,"open":0.7778,"high":0.7803,"low":0.774,"close":0.776,"volume":9055}
{"timestamp":"2022-01-22T15:17:00+07:00","time":1642839420000,"open":0.776,"high":0.7768,"low":0.766,"close":0.7666,"volume":46603}
{"timestamp":"2022-01-22T15:18:00+07:00","time":1642839480000,"open":0.7699,"high":0.7798,"low":0.7661,"close":0.7675,"volume":21463}
{"timestamp":"2022-01-22T15:19:00+07:00","time":1642839540000,"open":0.7672,"high":0.7739,"low":0.7653,"close":0.77,"volume":23375}
{"timestamp":"2022-01-22T15:20:00+07:00","time":1642839600000,"open":0.7696,"high":0.7738,"low":0.7672,"close":0.7672,"volume":16985}
{"timestamp":"2022-01-22T15:21:00+07:00","time":1642839660000,"open":0.7662,"high":0.78,"low":0.7661,"close":0.7694,"volume":66146}
{"timestamp":"2022-01-22T15:22:00+07:00","time":1642839720000,"open":0.7716,"high":0.7732,"low":0.77,"close":0.7721,"volume":9657}
{"timestamp":"2022-01-22T15:23:00+07:00","time":1642839780000,"open":0.7721,"high":0.7798,"low":0.7697,"close":0.7713,"volume":27046}
{"timestamp":"2022-01-22T15:24:00+07:00","time":1642839840000,"open":0.7712,"high":0.774,"low":0.7691,"close":0.7734,"volume":3248}
{"timestamp":"2022-01-22T15:25:00+07:00","time":1642839900000,"open":0.7706,"high":0.7742,"low":0.7659,"close":0.767,"volume":6979}