{
  "progress": "buying",
  "progress_cmt": "buying/selling",
  "currentPrice": 0,
  "currentChart": "normal",
  "currentChart_cmt": "normal/up/down",
  "affterBuyHighPrice": 0,
  "affterBuyLowPrice": 0,
  "currentPercentAffterBuy": 0,
  "priceSL": 0,
  "buyType": "",
  "buyType_cmt": "du_dinh/du_dinh_volume/du_dinh_volume_applitude/do_day/ko_do_day/du_dinh_co_node_giam",
  "sellType": "",
  "sellType_cmt": "tp_up_on_top/tp_up_not_fast/tp_down/stop_loss",
  "ma7": 0,
  "ma7OrderStt": "normal",
  "chartTop": 0,
  "chartBottom": 0,
  "chartTopHigh": 0,
  "chartTopLow": 0,
  "chartBottomHigh": 0,
  "chartBottomLow": 0,
  "balance": {
    "USDT": 10000,
    "VCOIN": 0
  },
  "buyAmount": 0,
  "buyPrice": 0,
  "totalUSDT": 0
}