{
  "progress_cmt": "buying/selling/checking",
  "affterBuyPushQuick_cmt": "https://drive.google.com/file/d/1apjUQDbl5xTA-1KOHVEQFomK7nqYctMM/view?usp=sharing 01:44",
  "buyType_cmt": "du_dinh/du_dinh_volume/du_dinh_volume_applitude/do_day/ko_do_day/du_dinh_co_node_giam",
  "sellType_cmt": "tp_up_on_top/tp_up_not_fast/tp_down/stop_loss",
  "hardBuy_cmt": "check trigger buy turn it on 7, update realtime",
  "slContinuous_cmt": "init 3 -> reduce = 0 -> function stop",
  "slContinuousTmp_cmt": "ex set 4: reduce = 0 will allow to sell if not continue B, when using slContinuousTmp should set slContinuous = 1 ",
  "currentChart_cmt": "normal/up/down",
  "items": [
    "{\"time\":\"9/1/2022 23:14:02\",\"status\":\"up\",\"dif\":1.0208,\"price\":1.424,\"volume\":914.1,\"volumeTo\":1301.6784}",
    "{\"time\":\"9/1/2022 23:14:05\",\"status\":\"up\",\"dif\":11.426,\"price\":12.85,\"volume\":10,\"volumeTo\":128.5}",
    "{\"time\":\"9/1/2022 23:14:08\",\"status\":\"down\",\"dif\":-12.0014,\"price\":0.8486,\"volume\":9930.6,\"volumeTo\":8427.107160000001}",
    "{\"time\":\"9/1/2022 23:14:11\",\"status\":\"up\",\"dif\":1.1533999999999998,\"price\":2.002,\"volume\":351.22,\"volumeTo\":703.14244}",
    "{\"time\":\"9/1/2022 23:14:15\",\"status\":\"up\",\"dif\":9.962,\"price\":11.964,\"volume\":179.67,\"volumeTo\":2149.57188}",
    "{\"time\":\"9/1/2022 23:14:18\",\"status\":\"down\",\"dif\":-9.945,\"price\":2.019,\"volume\":38766.17,\"volumeTo\":78268.89723}",
    "{\"time\":\"9/1/2022 23:14:21\",\"status\":\"down\",\"dif\":-1.9769,\"price\":0.0421,\"volume\":57123.9,\"volumeTo\":2404.91619}",
    "{\"time\":\"9/1/2022 23:14:25\",\"status\":\"up\",\"dif\":0.06042,\"price\":0.10252,\"volume\":79672.54,\"volumeTo\":8168.0288008}",
    "{\"time\":\"9/1/2022 23:14:28\",\"status\":\"up\",\"dif\":1.8846800000000001,\"price\":1.9872,\"volume\":6053.3,\"volumeTo\":12029.117760000001}",
    "{\"time\":\"9/1/2022 23:14:31\",\"status\":\"down\",\"dif\":-1.80176,\"price\":0.18544,\"volume\":0,\"volumeTo\":0}"
  ],
  "priceSL": 0,
  "tpQuick": 0,
  "usingTpQuick": false,
  "stopAfterSell": false,
  "buyType": "",
  "sellType": "stop_loss",
  "balance": { "USDT": 4175.4344599, "VCOIN": 0.0927 },
  "totalUSDT": 4175.833347999999,
  "affterBuyPushQuick": 0,
  "tpAccelerate": 1.884222474460844,
  "limitBuyPrice": 0,
  "limitBuyCoin": "NEAR",
  "ma7": 0.18590428571428572,
  "ma7OrderStt": "down",
  "sellCandle": 0.2286,
  "buyCandle": 4.319,
  "currentPrice": 0.18544,
  "buyPrice": 0,
  "tpPrice": 4.50112,
  "slPrice": 4.24144,
  "stopBotAmountUp": 4500,
  "stopBotAmountDown": 4100,
  "tpSlDay": {
    "tpDay": 1,
    "slDay": 2,
    "startToday": 4197.4555533,
    "pot": 900,
    "potTP": 909,
    "potSL": 882,
    "tpDayAmount": 4206.4555533,
    "slDayAmount": 4179.4555533,
    "today": "2022-09-01",
    "nextDay": "2022-09-02"
  },
  "allowResetScraping": false,
  "checkCoinType": "dynamic",
  "checkC": [
    "REI",
    "ANC",
    "LUNA",
    "MIR",
    "SFP",
    "EOS",
    "ENS",
    "MATIC",
    "LDO",
    "ATOM",
    "FLOW"
  ],
  "currentCheckKey": 4,
  "checkBuy": { "down6Time": false, "timeframeRun": "15m" },
  "tpSLDay": false,
  "buyAmount": 0,
  "currentChart": "normal",
  "affterBuyHighPrice": 0,
  "affterBuyLowPrice": 0,
  "currentPercentAffterBuy": -2.1487985212569214,
  "tpTimeLoss": 4,
  "chartTop": 12.85,
  "chart95": 4.11845,
  "chart90": 3.9039,
  "chart10": 0.4711,
  "chart5": 0.25655,
  "chartBottom": 0.0419,
  "slContinuous": 3,
  "slContinuousTmp": 2,
  "timeLossTmp": 0,
  "maxTriggerLoss": 2,
  "coin": "MIR",
  "hardBuy": false,
  "hardSell": false,
  "waitHardBuy": false,
  "tpMin": 4,
  "stopBot": false,
  "progress": "checking",
  "newestActionTime": "2022-08-31T23:45:00-04:00",
  "accelerates": "0.1455996548748881, -0.39367955562745005, 0.3289473684210523, -0.540306894315972, -0.959879206212254, -1.0030198446937018",
  "acc": 0,
  "flagMa7BuyUp": true,
  "difPc": -2.1487985212569307,
  "comment": "selling difPc <= config.stopLoss >>>>>>>>",
  "comment_debug": [],
  "countTp": 39,
  "countSl": 39,
  "accLv1_2": 0,
  "accLv1_3": 0,
  "accLv2_3": 0.38794548085194663,
  "commentB": "checkMa3Buy ...",
  "commentB_debug": []
}
