function giống log 13

chạy 500
"totalUSDT":10568.80809438658
- SL: 6
- TP: 10
------

add feature, data.ma7
data.ma7 = 0.59512
data.ma7OrderStt = up


----//------


{"progress":"selling","progress_cmt":"buying/selling","currentPrice":0.7631,"currentChart":"normal","currentChart_cmt":"normal/up/down","affterBuyHighPrice":0.7631,"affterBuyLowPrice":0.7631,"currentPercentAffterBuy":43.83954154727783,"priceSL":0,"buyType":"du_dinh_co_node_giam","buyType_cmt":"du_dinh/du_dinh_volume/du_dinh_volume_applitude/do_day/ko_do_day/du_dinh_co_node_giam","sellType":"","sellType_cmt":"tp_up_on_top/tp_up_not_fast/tp_down/stop_loss","ma7":0.769842857142857,"ma7OrderStt":"down","chartTop":0.834,"chartBottom":0.5732,"chartTopHigh":0.8209599999999999,"chartTopLow":0.80792,"chartBottomHigh":0.59928,"chartBottomLow":0.5862400000000001,"balance":{"USDT":7568.808094386581,"VCOIN":3931.3327217926876},"buyAmount":3931.3327217926876,"buyPrice":0.7631,"totalUSDT":10568.80809438658}
{
  "TRADE_SIZE": 3000,
  "pairs": "ONG/USDT",
  "tpMin": 2,
  "tpMax": 95,
  "stopLoss": -2,
  "saleOnTopAcc": 1
}
